logs/iverilog_log.txt
WARNING: ../source/detect_preamble/preamble_correlator.v:20: $readmemb: Standard inconsistency, following 1364-2005.
WARNING: ../source/detect_preamble/preamble_correlator.v:21: $readmemb: Standard inconsistency, following 1364-2005.
VCD info: dumpfile dump.vcd opened for output.
Correct data: 1, Queue size: 6, Sim time: 355
Correct data: 1, Queue size: 5, Sim time: 365
Correct data: 0, Queue size: 6, Sim time: 375
Correct data: 0, Queue size: 5, Sim time: 385
Correct data: 0, Queue size: 6, Sim time: 395
Correct data: 0, Queue size: 5, Sim time: 405
Correct data: 1, Queue size: 6, Sim time: 415
Correct data: 0, Queue size: 5, Sim time: 425
Correct data: 1, Queue size: 6, Sim time: 435
Correct data: 1, Queue size: 5, Sim time: 445
Correct data: 1, Queue size: 6, Sim time: 455
Correct data: 1, Queue size: 5, Sim time: 465
Correct data: 1, Queue size: 6, Sim time: 475
Correct data: 0, Queue size: 5, Sim time: 485
Correct data: 0, Queue size: 5, Sim time: 495
Correct data: 1, Queue size: 4, Sim time: 505
Correct data: 1, Queue size: 3, Sim time: 515
Correct data: 1, Queue size: 2, Sim time: 525
Correct data: 0, Queue size: 1, Sim time: 535
Correct data: 0, Queue size: 0, Sim time: 545
Correct data: 0, Queue size: 4, Sim time: 1045
Correct data: 1, Queue size: 5, Sim time: 1055
Correct data: 1, Queue size: 4, Sim time: 1065
Correct data: 1, Queue size: 5, Sim time: 1075
Correct data: 0, Queue size: 4, Sim time: 1085
Correct data: 0, Queue size: 5, Sim time: 1095
Correct data: 0, Queue size: 4, Sim time: 1105
Correct data: 0, Queue size: 5, Sim time: 1115
Incorrect data: 1, Queue size: 16, Sim time: 1745
Correct data: 0, Queue size: 17, Sim time: 1755
Correct data: 0, Queue size: 16, Sim time: 1765
Incorrect data: 0, Queue size: 17, Sim time: 1775
Correct data: 1, Queue size: 16, Sim time: 1785
Incorrect data: 0, Queue size: 17, Sim time: 1795
Incorrect data: 0, Queue size: 16, Sim time: 1805
Correct data: 1, Queue size: 17, Sim time: 1815
Correct data: 0, Queue size: 16, Sim time: 1825
Incorrect data: 0, Queue size: 17, Sim time: 1835
Incorrect data: 0, Queue size: 16, Sim time: 1845
Incorrect data: 1, Queue size: 17, Sim time: 1855
Incorrect data: 0, Queue size: 16, Sim time: 1865
Incorrect data: 1, Queue size: 17, Sim time: 1875
Incorrect data: 1, Queue size: 16, Sim time: 1885
Correct data: 0, Queue size: 16, Sim time: 1895
Incorrect data: 0, Queue size: 15, Sim time: 1905
Correct data: 0, Queue size: 14, Sim time: 1915
Correct data: 0, Queue size: 13, Sim time: 1925
Correct data: 1, Queue size: 12, Sim time: 1935
Correct data: 0, Queue size: 16, Sim time: 2445
Correct data: 0, Queue size: 17, Sim time: 2455
Incorrect data: 1, Queue size: 16, Sim time: 2465
Incorrect data: 0, Queue size: 17, Sim time: 2475
Correct data: 0, Queue size: 16, Sim time: 2485
Incorrect data: 0, Queue size: 17, Sim time: 2495
Correct data: 1, Queue size: 16, Sim time: 2505
Incorrect data: 1, Queue size: 17, Sim time: 2515
Correct data: 0, Queue size: 16, Sim time: 2525
Incorrect data: 1, Queue size: 17, Sim time: 2535
Incorrect data: 1, Queue size: 16, Sim time: 2545
Correct data: 1, Queue size: 17, Sim time: 2555
Incorrect data: 1, Queue size: 16, Sim time: 2565
Correct data: 0, Queue size: 17, Sim time: 2575
Correct data: 1, Queue size: 16, Sim time: 2585
Incorrect data: 1, Queue size: 16, Sim time: 2595
Incorrect data: 1, Queue size: 15, Sim time: 2605
Correct data: 0, Queue size: 14, Sim time: 2615
Incorrect data: 0, Queue size: 13, Sim time: 2625
Correct data: 1, Queue size: 12, Sim time: 2635
Correct data: 0, Queue size: 12, Sim time: 3095
Incorrect data: 0, Queue size: 11, Sim time: 3105
Incorrect data: 0, Queue size: 12, Sim time: 3115
Correct data: 1, Queue size: 11, Sim time: 3125
Correct data: 1, Queue size: 12, Sim time: 3135
Incorrect data: 1, Queue size: 11, Sim time: 3145
Correct data: 1, Queue size: 12, Sim time: 3155
Correct data: 1, Queue size: 11, Sim time: 3165
Correct data: 1, Queue size: 12, Sim time: 3175
Correct data: 0, Queue size: 11, Sim time: 3185
Correct data: 0, Queue size: 12, Sim time: 3195
Correct data: 1, Queue size: 11, Sim time: 3205
Correct data: 1, Queue size: 12, Sim time: 3215
Incorrect data: 0, Queue size: 11, Sim time: 3225
Incorrect data: 0, Queue size: 12, Sim time: 3235
Incorrect data: 0, Queue size: 11, Sim time: 3245
Correct data: 0, Queue size: 12, Sim time: 3255
Incorrect data: 1, Queue size: 11, Sim time: 3265
Incorrect data: 0, Queue size: 12, Sim time: 3275
Incorrect data: 0, Queue size: 11, Sim time: 3285
Correct data: 0, Queue size: 16, Sim time: 3845
Correct data: 0, Queue size: 17, Sim time: 3855
Correct data: 0, Queue size: 16, Sim time: 3865
Correct data: 0, Queue size: 17, Sim time: 3875
Incorrect data: 0, Queue size: 16, Sim time: 3885
Incorrect data: 1, Queue size: 17, Sim time: 3895
Correct data: 0, Queue size: 16, Sim time: 3905
Correct data: 0, Queue size: 17, Sim time: 3915
Correct data: 0, Queue size: 16, Sim time: 3925
Correct data: 0, Queue size: 17, Sim time: 3935
