logs/iverilog_log.txt
WARNING: ../source/detect_preamble/preamble_correlator.v:37: $readmemb: Standard inconsistency, following 1364-2005.
WARNING: ../source/detect_preamble/preamble_correlator.v:38: $readmemb: Standard inconsistency, following 1364-2005.
WARNING: ../source/detect_preamble/preamble_correlator.v:39: $readmemb: Standard inconsistency, following 1364-2005.
WARNING: ../source/detect_bits/bits_correlator.v:35: $readmemb: Standard inconsistency, following 1364-2005.
WARNING: ../source/detect_bits/bits_correlator.v:36: $readmemb: Standard inconsistency, following 1364-2005.
WARNING: ../source/detect_bits/bits_detector.v:28: $readmemb: Standard inconsistency, following 1364-2005.
VCD info: dumpfile dump.vcd opened for output.
Correct data: 1, Queue size: 1, Sim time: 5975
Correct data: 0, Queue size: 1, Sim time: 6195
Correct data: 1, Queue size: 1, Sim time: 6415
Correct data: 0, Queue size: 1, Sim time: 6635
Correct data: 1, Queue size: 1, Sim time: 6855
Correct data: 0, Queue size: 1, Sim time: 7075
Correct data: 0, Queue size: 1, Sim time: 7295
Correct data: 1, Queue size: 1, Sim time: 7515
Correct data: 0, Queue size: 1, Sim time: 7735
Correct data: 0, Queue size: 1, Sim time: 7955
Correct data: 1, Queue size: 1, Sim time: 8175
Correct data: 0, Queue size: 1, Sim time: 8395
Correct data: 0, Queue size: 1, Sim time: 8615
Correct data: 0, Queue size: 1, Sim time: 8835
Correct data: 1, Queue size: 1, Sim time: 9055
Correct data: 0, Queue size: 1, Sim time: 9275
Correct data: 1, Queue size: 1, Sim time: 9495
Correct data: 0, Queue size: 1, Sim time: 9715
Correct data: 1, Queue size: 1, Sim time: 9935
Correct data: 0, Queue size: 1, Sim time: 10155
Correct data: 0, Queue size: 1, Sim time: 10375
Correct data: 1, Queue size: 1, Sim time: 10595
Correct data: 1, Queue size: 1, Sim time: 10815
Correct data: 0, Queue size: 1, Sim time: 11035
Correct data: 1, Queue size: 1, Sim time: 11255
Correct data: 0, Queue size: 1, Sim time: 11475
Correct data: 0, Queue size: 1, Sim time: 11695
Correct data: 1, Queue size: 1, Sim time: 11915
Correct data: 1, Queue size: 1, Sim time: 12135
Correct data: 1, Queue size: 1, Sim time: 12355
Correct data: 1, Queue size: 1, Sim time: 12575
Correct data: 0, Queue size: 1, Sim time: 12795
Correct data: 1, Queue size: 1, Sim time: 13015
Correct data: 1, Queue size: 1, Sim time: 13235
Correct data: 1, Queue size: 1, Sim time: 13455
Correct data: 1, Queue size: 1, Sim time: 13675
Correct data: 1, Queue size: 1, Sim time: 13895
Correct data: 0, Queue size: 1, Sim time: 14115
Correct data: 1, Queue size: 1, Sim time: 14335
Correct data: 0, Queue size: 1, Sim time: 14555
Correct data: 1, Queue size: 1, Sim time: 14775
Correct data: 0, Queue size: 1, Sim time: 14995
Correct data: 1, Queue size: 1, Sim time: 15215
Correct data: 0, Queue size: 1, Sim time: 15435
Correct data: 1, Queue size: 1, Sim time: 15655
Correct data: 0, Queue size: 1, Sim time: 15875
Correct data: 1, Queue size: 1, Sim time: 16095
Correct data: 1, Queue size: 1, Sim time: 16315
Correct data: 0, Queue size: 1, Sim time: 16535
Correct data: 1, Queue size: 1, Sim time: 16755
Correct data: 0, Queue size: 1, Sim time: 16975
Correct data: 0, Queue size: 1, Sim time: 17195
Correct data: 0, Queue size: 1, Sim time: 17415
Correct data: 1, Queue size: 1, Sim time: 17635
Correct data: 1, Queue size: 1, Sim time: 17855
Correct data: 0, Queue size: 1, Sim time: 18075
Correct data: 0, Queue size: 1, Sim time: 18295
Correct data: 1, Queue size: 1, Sim time: 18515
Correct data: 1, Queue size: 1, Sim time: 18735
Correct data: 0, Queue size: 1, Sim time: 18955
Correct data: 1, Queue size: 1, Sim time: 19175
Correct data: 1, Queue size: 1, Sim time: 19395
Correct data: 1, Queue size: 1, Sim time: 19615
Correct data: 0, Queue size: 1, Sim time: 19835
Correct data: 1, Queue size: 1, Sim time: 20055
Correct data: 0, Queue size: 1, Sim time: 20275
Correct data: 0, Queue size: 1, Sim time: 20495
Correct data: 1, Queue size: 1, Sim time: 20715
Correct data: 1, Queue size: 1, Sim time: 20935
Correct data: 1, Queue size: 1, Sim time: 21155
Correct data: 1, Queue size: 1, Sim time: 21375
Correct data: 0, Queue size: 1, Sim time: 21595
Correct data: 0, Queue size: 1, Sim time: 21815
Correct data: 0, Queue size: 1, Sim time: 22035
Correct data: 1, Queue size: 1, Sim time: 22255
Correct data: 1, Queue size: 1, Sim time: 22475
Correct data: 0, Queue size: 1, Sim time: 22695
Correct data: 0, Queue size: 1, Sim time: 22915
Correct data: 0, Queue size: 1, Sim time: 23135
Correct data: 0, Queue size: 1, Sim time: 23355
Correct data: 1, Queue size: 1, Sim time: 23575
Correct data: 0, Queue size: 1, Sim time: 23795
Correct data: 1, Queue size: 1, Sim time: 24015
Correct data: 0, Queue size: 1, Sim time: 24235
Correct data: 0, Queue size: 1, Sim time: 24455
Correct data: 0, Queue size: 1, Sim time: 24675
Correct data: 0, Queue size: 1, Sim time: 24895
Correct data: 1, Queue size: 1, Sim time: 25115
Correct data: 1, Queue size: 1, Sim time: 25335
Correct data: 1, Queue size: 1, Sim time: 25555
Correct data: 1, Queue size: 1, Sim time: 25775
Correct data: 1, Queue size: 1, Sim time: 25995
Correct data: 0, Queue size: 1, Sim time: 26215
Correct data: 0, Queue size: 1, Sim time: 26435
Correct data: 1, Queue size: 1, Sim time: 26655
Correct data: 0, Queue size: 1, Sim time: 26875
Correct data: 1, Queue size: 1, Sim time: 27095
Correct data: 0, Queue size: 1, Sim time: 27315
Correct data: 0, Queue size: 1, Sim time: 27535
Correct data: 0, Queue size: 1, Sim time: 27755
Correct data: 1, Queue size: 1, Sim time: 27975
Correct data: 0, Queue size: 1, Sim time: 28195
Correct data: 1, Queue size: 1, Sim time: 28415
Correct data: 1, Queue size: 1, Sim time: 28635
Correct data: 1, Queue size: 1, Sim time: 28855
Correct data: 0, Queue size: 1, Sim time: 29075
Correct data: 1, Queue size: 1, Sim time: 29295
Correct data: 0, Queue size: 1, Sim time: 29515
Correct data: 0, Queue size: 1, Sim time: 29735
Correct data: 0, Queue size: 1, Sim time: 29955
Correct data: 0, Queue size: 1, Sim time: 30175
Correct data: 1, Queue size: 1, Sim time: 30395
Correct data: 1, Queue size: 1, Sim time: 30615
Correct data: 1, Queue size: 1, Sim time: 30835
Correct data: 0, Queue size: 1, Sim time: 31055
Correct data: 1, Queue size: 1, Sim time: 31275
Correct data: 1, Queue size: 1, Sim time: 31495
Correct data: 0, Queue size: 1, Sim time: 31715
Correct data: 1, Queue size: 1, Sim time: 31935
Correct data: 0, Queue size: 1, Sim time: 32155
Correct data: 0, Queue size: 1, Sim time: 32375
Correct data: 0, Queue size: 1, Sim time: 32595
Correct data: 0, Queue size: 1, Sim time: 32815
Correct data: 0, Queue size: 1, Sim time: 33035
Correct data: 1, Queue size: 1, Sim time: 33255
Correct data: 1, Queue size: 1, Sim time: 33475
Correct data: 1, Queue size: 1, Sim time: 33695
Correct data: 1, Queue size: 1, Sim time: 33915
Correct data: 0, Queue size: 1, Sim time: 34135
Correct data: 1, Queue size: 1, Sim time: 34355
Correct data: 0, Queue size: 1, Sim time: 34575
Correct data: 1, Queue size: 1, Sim time: 34795
Correct data: 1, Queue size: 1, Sim time: 35015
Correct data: 1, Queue size: 1, Sim time: 35235
Correct data: 0, Queue size: 1, Sim time: 35455
Correct data: 1, Queue size: 1, Sim time: 35675
Correct data: 1, Queue size: 1, Sim time: 35895
Correct data: 1, Queue size: 1, Sim time: 36115
Correct data: 1, Queue size: 1, Sim time: 36335
Correct data: 0, Queue size: 1, Sim time: 36555
Correct data: 1, Queue size: 1, Sim time: 36775
Correct data: 0, Queue size: 1, Sim time: 36995
Correct data: 1, Queue size: 1, Sim time: 37215
Correct data: 0, Queue size: 1, Sim time: 37435
Correct data: 1, Queue size: 1, Sim time: 37655
Correct data: 1, Queue size: 1, Sim time: 37875
Correct data: 0, Queue size: 1, Sim time: 38095
Correct data: 0, Queue size: 1, Sim time: 38315
Correct data: 1, Queue size: 1, Sim time: 38535
Correct data: 1, Queue size: 1, Sim time: 38755
Correct data: 1, Queue size: 1, Sim time: 38975
Correct data: 0, Queue size: 1, Sim time: 39195
Correct data: 0, Queue size: 1, Sim time: 39415
Correct data: 1, Queue size: 1, Sim time: 39635
Correct data: 0, Queue size: 1, Sim time: 39855
Correct data: 0, Queue size: 1, Sim time: 40075
Correct data: 0, Queue size: 1, Sim time: 40295
Correct data: 1, Queue size: 1, Sim time: 40515
Correct data: 0, Queue size: 1, Sim time: 40735
Correct data: 0, Queue size: 1, Sim time: 40955
Correct data: 1, Queue size: 1, Sim time: 41175
Correct data: 0, Queue size: 1, Sim time: 41395
Correct data: 1, Queue size: 1, Sim time: 41615
Correct data: 0, Queue size: 1, Sim time: 41835
Correct data: 1, Queue size: 1, Sim time: 42055
Correct data: 0, Queue size: 1, Sim time: 42275
Correct data: 0, Queue size: 1, Sim time: 42495
Correct data: 0, Queue size: 1, Sim time: 42715
Correct data: 0, Queue size: 1, Sim time: 42935
Correct data: 1, Queue size: 1, Sim time: 43155
Correct data: 0, Queue size: 1, Sim time: 43375
Correct data: 1, Queue size: 1, Sim time: 43595
Correct data: 1, Queue size: 1, Sim time: 43815
Correct data: 1, Queue size: 1, Sim time: 44035
Correct data: 1, Queue size: 1, Sim time: 44255
Correct data: 0, Queue size: 1, Sim time: 44475
Correct data: 0, Queue size: 1, Sim time: 44695
Correct data: 0, Queue size: 1, Sim time: 44915
Correct data: 1, Queue size: 1, Sim time: 45135
Correct data: 1, Queue size: 1, Sim time: 45355
Correct data: 1, Queue size: 1, Sim time: 45575
Correct data: 0, Queue size: 1, Sim time: 45795
Correct data: 1, Queue size: 1, Sim time: 46015
Correct data: 1, Queue size: 1, Sim time: 46235
Correct data: 0, Queue size: 1, Sim time: 46455
Correct data: 1, Queue size: 1, Sim time: 46675
Correct data: 1, Queue size: 1, Sim time: 46895
Correct data: 1, Queue size: 1, Sim time: 47115
Correct data: 1, Queue size: 1, Sim time: 47335
Correct data: 0, Queue size: 1, Sim time: 47555
Correct data: 1, Queue size: 1, Sim time: 47775
Correct data: 0, Queue size: 1, Sim time: 47995
Correct data: 1, Queue size: 1, Sim time: 48215
Correct data: 0, Queue size: 1, Sim time: 48435
Correct data: 0, Queue size: 1, Sim time: 48655
Correct data: 0, Queue size: 1, Sim time: 48875
Correct data: 1, Queue size: 1, Sim time: 49095
Correct data: 0, Queue size: 1, Sim time: 49315
Correct data: 0, Queue size: 1, Sim time: 49535
Correct data: 0, Queue size: 1, Sim time: 49755
Correct data: 0, Queue size: 1, Sim time: 49975
Correct data: 1, Queue size: 1, Sim time: 50195
Correct data: 0, Queue size: 1, Sim time: 50415
Correct data: 1, Queue size: 1, Sim time: 50635
Correct data: 1, Queue size: 1, Sim time: 50855
Correct data: 0, Queue size: 1, Sim time: 51075
Correct data: 0, Queue size: 1, Sim time: 51295
Correct data: 1, Queue size: 1, Sim time: 51515
Correct data: 0, Queue size: 1, Sim time: 51735
Correct data: 1, Queue size: 1, Sim time: 51955
Correct data: 1, Queue size: 1, Sim time: 52175
Correct data: 0, Queue size: 1, Sim time: 52395
Correct data: 1, Queue size: 1, Sim time: 52615
Correct data: 1, Queue size: 1, Sim time: 52835
Correct data: 0, Queue size: 1, Sim time: 53055
Correct data: 1, Queue size: 1, Sim time: 53275
Correct data: 1, Queue size: 1, Sim time: 53495
Correct data: 1, Queue size: 1, Sim time: 53715
Correct data: 1, Queue size: 1, Sim time: 53935
Correct data: 1, Queue size: 1, Sim time: 54155
Correct data: 0, Queue size: 1, Sim time: 54375
Correct data: 0, Queue size: 1, Sim time: 54595
Correct data: 0, Queue size: 1, Sim time: 54815
Correct data: 1, Queue size: 1, Sim time: 55035
Correct data: 1, Queue size: 1, Sim time: 55255
Correct data: 1, Queue size: 1, Sim time: 55475
Correct data: 1, Queue size: 1, Sim time: 55695
Correct data: 1, Queue size: 1, Sim time: 55915
Correct data: 0, Queue size: 1, Sim time: 56135
Correct data: 1, Queue size: 1, Sim time: 56355
Correct data: 0, Queue size: 1, Sim time: 56575
Correct data: 1, Queue size: 1, Sim time: 56795
Correct data: 1, Queue size: 1, Sim time: 57015
Correct data: 0, Queue size: 1, Sim time: 57235
Correct data: 0, Queue size: 1, Sim time: 57455
Correct data: 0, Queue size: 1, Sim time: 57675
Correct data: 1, Queue size: 1, Sim time: 57895
Correct data: 1, Queue size: 1, Sim time: 58115
Correct data: 0, Queue size: 1, Sim time: 58335
Correct data: 1, Queue size: 1, Sim time: 58555
Correct data: 0, Queue size: 1, Sim time: 58775
Correct data: 0, Queue size: 1, Sim time: 58995
Correct data: 1, Queue size: 1, Sim time: 59215
Correct data: 0, Queue size: 1, Sim time: 59435
Correct data: 0, Queue size: 1, Sim time: 59655
Correct data: 1, Queue size: 1, Sim time: 59875
Correct data: 1, Queue size: 1, Sim time: 60095
Correct data: 1, Queue size: 1, Sim time: 60315
Correct data: 1, Queue size: 1, Sim time: 60535
Correct data: 0, Queue size: 1, Sim time: 60755
Correct data: 0, Queue size: 1, Sim time: 60975
Correct data: 0, Queue size: 1, Sim time: 61195
Correct data: 0, Queue size: 1, Sim time: 61415
Correct data: 1, Queue size: 1, Sim time: 68395
Correct data: 1, Queue size: 1, Sim time: 68615
Correct data: 1, Queue size: 1, Sim time: 68835
Correct data: 0, Queue size: 1, Sim time: 69055
Correct data: 1, Queue size: 1, Sim time: 69275
Correct data: 1, Queue size: 1, Sim time: 69495
Correct data: 1, Queue size: 1, Sim time: 69715
Correct data: 0, Queue size: 1, Sim time: 69935
Correct data: 0, Queue size: 1, Sim time: 70155
Correct data: 0, Queue size: 1, Sim time: 70375
Correct data: 0, Queue size: 1, Sim time: 70595
Correct data: 1, Queue size: 1, Sim time: 70815
Correct data: 0, Queue size: 1, Sim time: 71035
Correct data: 1, Queue size: 1, Sim time: 71255
Correct data: 0, Queue size: 1, Sim time: 71475
Correct data: 1, Queue size: 1, Sim time: 71695
Correct data: 1, Queue size: 1, Sim time: 71915
Correct data: 0, Queue size: 1, Sim time: 72135
Correct data: 1, Queue size: 1, Sim time: 72355
Correct data: 0, Queue size: 1, Sim time: 72575
Correct data: 1, Queue size: 1, Sim time: 72795
Correct data: 1, Queue size: 1, Sim time: 73015
Correct data: 0, Queue size: 1, Sim time: 73235
Correct data: 0, Queue size: 1, Sim time: 73455
Correct data: 0, Queue size: 1, Sim time: 73675
Correct data: 0, Queue size: 1, Sim time: 73895
Correct data: 0, Queue size: 1, Sim time: 74115
Correct data: 0, Queue size: 1, Sim time: 74335
Correct data: 0, Queue size: 1, Sim time: 74555
Correct data: 1, Queue size: 1, Sim time: 74775
Correct data: 1, Queue size: 1, Sim time: 74995
Correct data: 0, Queue size: 1, Sim time: 75215
Correct data: 0, Queue size: 1, Sim time: 75435
Correct data: 0, Queue size: 1, Sim time: 75655
Correct data: 1, Queue size: 1, Sim time: 75875
Correct data: 1, Queue size: 1, Sim time: 76095
Correct data: 1, Queue size: 1, Sim time: 76315
Correct data: 1, Queue size: 1, Sim time: 76535
Correct data: 0, Queue size: 1, Sim time: 76755
Correct data: 0, Queue size: 1, Sim time: 76975
Correct data: 0, Queue size: 1, Sim time: 77195
Correct data: 1, Queue size: 1, Sim time: 77415
Correct data: 0, Queue size: 1, Sim time: 77635
Correct data: 0, Queue size: 1, Sim time: 77855
Correct data: 0, Queue size: 1, Sim time: 78075
Correct data: 0, Queue size: 1, Sim time: 78295
Correct data: 0, Queue size: 1, Sim time: 78515
Correct data: 0, Queue size: 1, Sim time: 78735
Correct data: 1, Queue size: 1, Sim time: 78955
Correct data: 0, Queue size: 1, Sim time: 79175
Correct data: 1, Queue size: 1, Sim time: 79395
Correct data: 0, Queue size: 1, Sim time: 79615
Correct data: 0, Queue size: 1, Sim time: 79835
Correct data: 0, Queue size: 1, Sim time: 80055
Correct data: 1, Queue size: 1, Sim time: 80275
Correct data: 1, Queue size: 1, Sim time: 80495
Correct data: 1, Queue size: 1, Sim time: 80715
Correct data: 0, Queue size: 1, Sim time: 80935
Correct data: 1, Queue size: 1, Sim time: 81155
Correct data: 0, Queue size: 1, Sim time: 81375
Correct data: 0, Queue size: 1, Sim time: 81595
Correct data: 1, Queue size: 1, Sim time: 81815
Correct data: 0, Queue size: 1, Sim time: 82035
Correct data: 0, Queue size: 1, Sim time: 82255
Correct data: 0, Queue size: 1, Sim time: 82475
Correct data: 0, Queue size: 1, Sim time: 82695
Correct data: 1, Queue size: 1, Sim time: 82915
Correct data: 0, Queue size: 1, Sim time: 83135
Correct data: 1, Queue size: 1, Sim time: 83355
Correct data: 0, Queue size: 1, Sim time: 83575
Correct data: 1, Queue size: 1, Sim time: 83795
Correct data: 0, Queue size: 1, Sim time: 84015
Correct data: 0, Queue size: 1, Sim time: 84235
Correct data: 0, Queue size: 1, Sim time: 84455
Correct data: 0, Queue size: 1, Sim time: 84675
Correct data: 1, Queue size: 1, Sim time: 84895
Correct data: 1, Queue size: 1, Sim time: 85115
Correct data: 1, Queue size: 1, Sim time: 85335
Correct data: 1, Queue size: 1, Sim time: 85555
Correct data: 0, Queue size: 1, Sim time: 85775
Correct data: 1, Queue size: 1, Sim time: 85995
Correct data: 1, Queue size: 1, Sim time: 86215
Correct data: 1, Queue size: 1, Sim time: 86435
Correct data: 1, Queue size: 1, Sim time: 86655
Correct data: 1, Queue size: 1, Sim time: 86875
Correct data: 1, Queue size: 1, Sim time: 87095
Correct data: 0, Queue size: 1, Sim time: 87315
Correct data: 1, Queue size: 1, Sim time: 87535
Correct data: 1, Queue size: 1, Sim time: 87755
Correct data: 1, Queue size: 1, Sim time: 87975
Correct data: 0, Queue size: 1, Sim time: 88195
Correct data: 0, Queue size: 1, Sim time: 88415
Correct data: 1, Queue size: 1, Sim time: 88635
Correct data: 0, Queue size: 1, Sim time: 88855
Correct data: 0, Queue size: 1, Sim time: 89075
Correct data: 0, Queue size: 1, Sim time: 89295
Correct data: 0, Queue size: 1, Sim time: 89515
Correct data: 1, Queue size: 1, Sim time: 89735
Correct data: 1, Queue size: 1, Sim time: 89955
