logs/iverilog_log.txt
WARNING: ../source/detect_preamble/preamble_correlator.v:37: $readmemb: Standard inconsistency, following 1364-2005.
WARNING: ../source/detect_preamble/preamble_correlator.v:38: $readmemb: Standard inconsistency, following 1364-2005.
WARNING: ../source/detect_preamble/preamble_correlator.v:39: $readmemb: Standard inconsistency, following 1364-2005.
WARNING: ../source/detect_bits/bits_correlator.v:35: $readmemb: Standard inconsistency, following 1364-2005.
WARNING: ../source/detect_bits/bits_correlator.v:36: $readmemb: Standard inconsistency, following 1364-2005.
WARNING: ../source/detect_bits/bits_detector.v:28: $readmemb: Standard inconsistency, following 1364-2005.
VCD info: dumpfile dump.vcd opened for output.
Correct data: 1, Queue size: 1, Sim time: 7995
Correct data: 0, Queue size: 1, Sim time: 8215
Correct data: 1, Queue size: 1, Sim time: 8435
Correct data: 1, Queue size: 1, Sim time: 8655
Correct data: 1, Queue size: 1, Sim time: 8875
Correct data: 0, Queue size: 1, Sim time: 9095
Correct data: 0, Queue size: 1, Sim time: 9315
Correct data: 0, Queue size: 1, Sim time: 9535
Correct data: 1, Queue size: 1, Sim time: 9755
Correct data: 1, Queue size: 1, Sim time: 9975
Correct data: 1, Queue size: 1, Sim time: 10195
Correct data: 1, Queue size: 1, Sim time: 10415
Correct data: 0, Queue size: 1, Sim time: 10635
Correct data: 1, Queue size: 1, Sim time: 10855
Correct data: 1, Queue size: 1, Sim time: 11075
Correct data: 1, Queue size: 1, Sim time: 11295
Correct data: 1, Queue size: 1, Sim time: 11515
Correct data: 0, Queue size: 1, Sim time: 11735
Correct data: 1, Queue size: 1, Sim time: 11955
Correct data: 0, Queue size: 1, Sim time: 12175
Correct data: 0, Queue size: 1, Sim time: 12395
Correct data: 1, Queue size: 1, Sim time: 12615
Correct data: 0, Queue size: 1, Sim time: 12835
Correct data: 1, Queue size: 1, Sim time: 13055
Correct data: 1, Queue size: 1, Sim time: 13275
Correct data: 0, Queue size: 1, Sim time: 13495
Correct data: 0, Queue size: 1, Sim time: 13715
Correct data: 0, Queue size: 1, Sim time: 13935
Correct data: 1, Queue size: 1, Sim time: 14155
Correct data: 0, Queue size: 1, Sim time: 14375
Correct data: 0, Queue size: 1, Sim time: 14595
Correct data: 0, Queue size: 1, Sim time: 14815
Correct data: 1, Queue size: 1, Sim time: 15035
Correct data: 0, Queue size: 1, Sim time: 15255
Correct data: 0, Queue size: 1, Sim time: 15475
Correct data: 1, Queue size: 1, Sim time: 15695
Correct data: 1, Queue size: 1, Sim time: 15915
Correct data: 0, Queue size: 1, Sim time: 16135
Correct data: 0, Queue size: 1, Sim time: 16355
Correct data: 1, Queue size: 1, Sim time: 16575
Correct data: 1, Queue size: 1, Sim time: 16795
Correct data: 0, Queue size: 1, Sim time: 17015
Correct data: 1, Queue size: 1, Sim time: 17235
Correct data: 1, Queue size: 1, Sim time: 17455
Correct data: 1, Queue size: 1, Sim time: 17675
Correct data: 1, Queue size: 1, Sim time: 17895
Correct data: 0, Queue size: 1, Sim time: 18115
Correct data: 1, Queue size: 1, Sim time: 18335
Correct data: 0, Queue size: 1, Sim time: 18555
Correct data: 1, Queue size: 1, Sim time: 18775
Correct data: 1, Queue size: 1, Sim time: 18995
Correct data: 0, Queue size: 1, Sim time: 19215
Correct data: 1, Queue size: 1, Sim time: 19435
Correct data: 1, Queue size: 1, Sim time: 19655
Correct data: 1, Queue size: 1, Sim time: 19875
Correct data: 1, Queue size: 1, Sim time: 20095
Correct data: 1, Queue size: 1, Sim time: 20315
Correct data: 0, Queue size: 1, Sim time: 20535
Correct data: 1, Queue size: 1, Sim time: 20755
Correct data: 0, Queue size: 1, Sim time: 20975
Correct data: 1, Queue size: 1, Sim time: 21195
Correct data: 0, Queue size: 1, Sim time: 21415
Correct data: 1, Queue size: 1, Sim time: 21635
Correct data: 1, Queue size: 1, Sim time: 21855
Correct data: 0, Queue size: 1, Sim time: 22075
Correct data: 0, Queue size: 1, Sim time: 22295
Correct data: 0, Queue size: 1, Sim time: 22515
Incorrect data: 1, Queue size: 1, Sim time: 22735
Correct data: 0, Queue size: 1, Sim time: 22955
Correct data: 1, Queue size: 1, Sim time: 23175
Correct data: 1, Queue size: 1, Sim time: 23395
Correct data: 0, Queue size: 1, Sim time: 23615
Correct data: 1, Queue size: 1, Sim time: 32415
Correct data: 1, Queue size: 1, Sim time: 32635
Correct data: 1, Queue size: 1, Sim time: 32855
Correct data: 0, Queue size: 1, Sim time: 33075
Correct data: 0, Queue size: 1, Sim time: 33295
Correct data: 1, Queue size: 1, Sim time: 33515
Correct data: 1, Queue size: 1, Sim time: 33735
Correct data: 1, Queue size: 1, Sim time: 33955
Correct data: 1, Queue size: 1, Sim time: 34175
Correct data: 1, Queue size: 1, Sim time: 34395
Correct data: 1, Queue size: 1, Sim time: 34615
Correct data: 1, Queue size: 1, Sim time: 34835
Correct data: 0, Queue size: 1, Sim time: 35055
Correct data: 1, Queue size: 1, Sim time: 35275
Correct data: 1, Queue size: 1, Sim time: 35495
Correct data: 1, Queue size: 1, Sim time: 35715
Correct data: 0, Queue size: 1, Sim time: 35935
Correct data: 0, Queue size: 1, Sim time: 36155
Correct data: 1, Queue size: 1, Sim time: 36375
Correct data: 0, Queue size: 1, Sim time: 36595
Correct data: 1, Queue size: 1, Sim time: 36815
Correct data: 0, Queue size: 1, Sim time: 37035
Correct data: 1, Queue size: 1, Sim time: 37255
Correct data: 1, Queue size: 1, Sim time: 37475
Correct data: 0, Queue size: 1, Sim time: 37695
Correct data: 0, Queue size: 1, Sim time: 37915
Correct data: 1, Queue size: 1, Sim time: 38135
Correct data: 1, Queue size: 1, Sim time: 38355
Correct data: 1, Queue size: 1, Sim time: 38575
Correct data: 0, Queue size: 1, Sim time: 38795
Correct data: 1, Queue size: 1, Sim time: 39015
Correct data: 0, Queue size: 1, Sim time: 39235
Correct data: 0, Queue size: 1, Sim time: 39455
Correct data: 1, Queue size: 1, Sim time: 39675
Correct data: 1, Queue size: 1, Sim time: 39895
Correct data: 1, Queue size: 1, Sim time: 40115
Correct data: 0, Queue size: 1, Sim time: 40335
Correct data: 0, Queue size: 1, Sim time: 40555
Correct data: 0, Queue size: 1, Sim time: 40775
Correct data: 1, Queue size: 1, Sim time: 40995
Correct data: 0, Queue size: 1, Sim time: 41215
Correct data: 0, Queue size: 1, Sim time: 41435
Correct data: 0, Queue size: 1, Sim time: 41655
Correct data: 0, Queue size: 1, Sim time: 41875
Correct data: 0, Queue size: 1, Sim time: 42095
Correct data: 0, Queue size: 1, Sim time: 42315
Correct data: 1, Queue size: 1, Sim time: 42535
Correct data: 1, Queue size: 1, Sim time: 42755
Correct data: 1, Queue size: 1, Sim time: 42975
Correct data: 0, Queue size: 1, Sim time: 43195
Correct data: 1, Queue size: 1, Sim time: 43415
Correct data: 1, Queue size: 1, Sim time: 43635
Correct data: 1, Queue size: 1, Sim time: 43855
Correct data: 1, Queue size: 1, Sim time: 44075
Correct data: 1, Queue size: 1, Sim time: 44295
Correct data: 1, Queue size: 1, Sim time: 44515
Correct data: 0, Queue size: 1, Sim time: 44735
Correct data: 1, Queue size: 1, Sim time: 44955
Correct data: 1, Queue size: 1, Sim time: 45175
Correct data: 0, Queue size: 1, Sim time: 45395
Correct data: 1, Queue size: 1, Sim time: 45615
Correct data: 0, Queue size: 1, Sim time: 45835
Correct data: 1, Queue size: 1, Sim time: 46055
Correct data: 0, Queue size: 1, Sim time: 46275
Correct data: 0, Queue size: 1, Sim time: 46495
Correct data: 1, Queue size: 1, Sim time: 46715
Correct data: 1, Queue size: 1, Sim time: 46935
Correct data: 1, Queue size: 1, Sim time: 47155
Correct data: 0, Queue size: 1, Sim time: 47375
Correct data: 1, Queue size: 1, Sim time: 47595
Correct data: 0, Queue size: 1, Sim time: 47815
Correct data: 0, Queue size: 1, Sim time: 48035
Correct data: 1, Queue size: 1, Sim time: 56835
Correct data: 1, Queue size: 1, Sim time: 57055
Correct data: 1, Queue size: 1, Sim time: 57275
Correct data: 1, Queue size: 1, Sim time: 57495
Correct data: 1, Queue size: 1, Sim time: 57715
Correct data: 0, Queue size: 1, Sim time: 57935
Correct data: 1, Queue size: 1, Sim time: 58155
Correct data: 0, Queue size: 1, Sim time: 58375
Correct data: 1, Queue size: 1, Sim time: 58595
Correct data: 0, Queue size: 1, Sim time: 58815
Correct data: 0, Queue size: 1, Sim time: 59035
Correct data: 1, Queue size: 1, Sim time: 59255
Correct data: 1, Queue size: 1, Sim time: 59475
Correct data: 0, Queue size: 1, Sim time: 59695
Correct data: 0, Queue size: 1, Sim time: 59915
Correct data: 0, Queue size: 1, Sim time: 60135
Correct data: 1, Queue size: 1, Sim time: 60355
Correct data: 0, Queue size: 1, Sim time: 60575
Correct data: 1, Queue size: 1, Sim time: 60795
Correct data: 0, Queue size: 1, Sim time: 61015
Correct data: 1, Queue size: 1, Sim time: 61235
Correct data: 1, Queue size: 1, Sim time: 61455
Correct data: 0, Queue size: 1, Sim time: 61675
Correct data: 0, Queue size: 1, Sim time: 61895
Correct data: 0, Queue size: 1, Sim time: 62115
Correct data: 0, Queue size: 1, Sim time: 62335
Correct data: 0, Queue size: 1, Sim time: 62555
Correct data: 1, Queue size: 1, Sim time: 62775
Correct data: 0, Queue size: 1, Sim time: 62995
Correct data: 1, Queue size: 1, Sim time: 63215
Correct data: 0, Queue size: 1, Sim time: 63435
Correct data: 0, Queue size: 1, Sim time: 63655
Correct data: 0, Queue size: 1, Sim time: 63875
Correct data: 1, Queue size: 1, Sim time: 64095
Correct data: 1, Queue size: 1, Sim time: 64315
Correct data: 1, Queue size: 1, Sim time: 64535
Correct data: 1, Queue size: 1, Sim time: 64755
Correct data: 1, Queue size: 1, Sim time: 64975
Correct data: 1, Queue size: 1, Sim time: 65195
Correct data: 0, Queue size: 1, Sim time: 65415
Correct data: 0, Queue size: 1, Sim time: 65635
Correct data: 0, Queue size: 1, Sim time: 65855
Correct data: 0, Queue size: 1, Sim time: 66075
Correct data: 1, Queue size: 1, Sim time: 66295
Correct data: 0, Queue size: 1, Sim time: 66515
Correct data: 0, Queue size: 1, Sim time: 66735
Correct data: 0, Queue size: 1, Sim time: 66955
Correct data: 1, Queue size: 1, Sim time: 67175
Correct data: 0, Queue size: 1, Sim time: 67395
Correct data: 0, Queue size: 1, Sim time: 67615
Correct data: 1, Queue size: 1, Sim time: 67835
Correct data: 0, Queue size: 1, Sim time: 68055
Correct data: 1, Queue size: 1, Sim time: 68275
Correct data: 0, Queue size: 1, Sim time: 68495
Correct data: 0, Queue size: 1, Sim time: 68715
Correct data: 0, Queue size: 1, Sim time: 68935
Correct data: 1, Queue size: 1, Sim time: 69155
Correct data: 0, Queue size: 1, Sim time: 69375
Correct data: 1, Queue size: 1, Sim time: 69595
Correct data: 1, Queue size: 1, Sim time: 69815
Correct data: 1, Queue size: 1, Sim time: 70035
Correct data: 1, Queue size: 1, Sim time: 70255
Correct data: 1, Queue size: 1, Sim time: 70475
Correct data: 1, Queue size: 1, Sim time: 70695
Correct data: 0, Queue size: 1, Sim time: 70915
Correct data: 1, Queue size: 1, Sim time: 71135
Correct data: 0, Queue size: 1, Sim time: 71355
Correct data: 1, Queue size: 1, Sim time: 71575
Correct data: 1, Queue size: 1, Sim time: 71795
Correct data: 0, Queue size: 1, Sim time: 72015
Correct data: 0, Queue size: 1, Sim time: 72235
Correct data: 1, Queue size: 1, Sim time: 72455
Correct data: 1, Queue size: 1, Sim time: 81135
Correct data: 0, Queue size: 0, Sim time: 81295
Incorrect data: 0, Queue size: 0, Sim time: 81455
Incorrect data: 1, Queue size: 0, Sim time: 81615
Incorrect data: 0, Queue size: 0, Sim time: 81775
Correct data: 1, Queue size: 0, Sim time: 82095
Correct data: 1, Queue size: 0, Sim time: 82255
Correct data: 1, Queue size: 0, Sim time: 82475
Correct data: 1, Queue size: 0, Sim time: 82755
Incorrect data: 1, Queue size: 0, Sim time: 83035
Correct data: 1, Queue size: 0, Sim time: 83255
Incorrect data: 1, Queue size: 0, Sim time: 83475
Correct data: 0, Queue size: 0, Sim time: 83635
Correct data: 1, Queue size: 0, Sim time: 83795
Correct data: 1, Queue size: 0, Sim time: 84115
Incorrect data: 0, Queue size: 0, Sim time: 84215
Correct data: 0, Queue size: 0, Sim time: 84415
Incorrect data: 0, Queue size: 0, Sim time: 84715
Incorrect data: 1, Queue size: 0, Sim time: 84915
Incorrect data: 1, Queue size: 0, Sim time: 85115
Incorrect data: 0, Queue size: 0, Sim time: 85315
Correct data: 0, Queue size: 0, Sim time: 85515
Incorrect data: 0, Queue size: 0, Sim time: 85815
Correct data: 1, Queue size: 0, Sim time: 86015
Incorrect data: 1, Queue size: 0, Sim time: 86215
Incorrect data: 1, Queue size: 0, Sim time: 86535
Correct data: 0, Queue size: 0, Sim time: 86695
Correct data: 0, Queue size: 0, Sim time: 86855
Incorrect data: 0, Queue size: 0, Sim time: 87055
Correct data: 1, Queue size: 0, Sim time: 87355
