logs/iverilog_log.txt
WARNING: ../source/detect_preamble/preamble_correlator.v:28: $readmemb: Standard inconsistency, following 1364-2005.
WARNING: ../source/detect_preamble/preamble_correlator.v:29: $readmemb: Standard inconsistency, following 1364-2005.
WARNING: ../source/detect_preamble/preamble_correlator.v:30: $readmemb: Standard inconsistency, following 1364-2005.
WARNING: ../source/detect_bits/bits_correlator.v:27: $readmemb: Standard inconsistency, following 1364-2005.
WARNING: ../source/detect_bits/bits_correlator.v:28: $readmemb: Standard inconsistency, following 1364-2005.
WARNING: ../source/detect_bits/bits_detector.v:20: $readmemb: Standard inconsistency, following 1364-2005.
VCD info: dumpfile dump.vcd opened for output.
Correct data: 1, Queue size: 1, Sim time: 5945
Correct data: 0, Queue size: 1, Sim time: 6165
Correct data: 0, Queue size: 1, Sim time: 6385
Correct data: 0, Queue size: 1, Sim time: 6605
Correct data: 1, Queue size: 1, Sim time: 6825
Correct data: 0, Queue size: 1, Sim time: 7045
Correct data: 0, Queue size: 1, Sim time: 7265
Correct data: 1, Queue size: 1, Sim time: 7485
Correct data: 1, Queue size: 1, Sim time: 7705
Correct data: 1, Queue size: 1, Sim time: 7925
Correct data: 0, Queue size: 1, Sim time: 8145
Correct data: 1, Queue size: 1, Sim time: 8365
Correct data: 0, Queue size: 1, Sim time: 8585
Correct data: 1, Queue size: 1, Sim time: 8805
Correct data: 1, Queue size: 1, Sim time: 9025
Correct data: 1, Queue size: 1, Sim time: 9245
Correct data: 1, Queue size: 1, Sim time: 9465
Correct data: 0, Queue size: 1, Sim time: 9685
Correct data: 0, Queue size: 1, Sim time: 9905
Correct data: 0, Queue size: 1, Sim time: 10125
Correct data: 0, Queue size: 1, Sim time: 10345
Correct data: 0, Queue size: 1, Sim time: 10565
Correct data: 0, Queue size: 1, Sim time: 10785
Correct data: 0, Queue size: 1, Sim time: 11005
Correct data: 1, Queue size: 1, Sim time: 11225
Correct data: 0, Queue size: 1, Sim time: 11445
Correct data: 1, Queue size: 1, Sim time: 11665
Correct data: 0, Queue size: 1, Sim time: 11885
Correct data: 1, Queue size: 1, Sim time: 12105
Correct data: 0, Queue size: 1, Sim time: 12325
Correct data: 1, Queue size: 1, Sim time: 12545
Correct data: 1, Queue size: 1, Sim time: 12765
Correct data: 1, Queue size: 1, Sim time: 12985
Correct data: 1, Queue size: 1, Sim time: 13205
Correct data: 0, Queue size: 1, Sim time: 13425
Correct data: 1, Queue size: 1, Sim time: 13645
Correct data: 1, Queue size: 1, Sim time: 13865
Correct data: 1, Queue size: 1, Sim time: 14085
Correct data: 1, Queue size: 1, Sim time: 14305
Correct data: 1, Queue size: 1, Sim time: 14525
Correct data: 1, Queue size: 1, Sim time: 14745
Correct data: 1, Queue size: 1, Sim time: 14965
Correct data: 1, Queue size: 1, Sim time: 15185
Correct data: 0, Queue size: 1, Sim time: 15405
Correct data: 1, Queue size: 1, Sim time: 15625
Correct data: 1, Queue size: 1, Sim time: 22365
Correct data: 1, Queue size: 1, Sim time: 22585
Correct data: 1, Queue size: 1, Sim time: 22805
Correct data: 0, Queue size: 1, Sim time: 23025
Correct data: 1, Queue size: 1, Sim time: 23245
Correct data: 1, Queue size: 1, Sim time: 23465
Correct data: 1, Queue size: 1, Sim time: 23685
Correct data: 0, Queue size: 1, Sim time: 23905
Correct data: 0, Queue size: 1, Sim time: 24125
Correct data: 1, Queue size: 1, Sim time: 24345
Correct data: 0, Queue size: 1, Sim time: 24565
Correct data: 0, Queue size: 1, Sim time: 24785
Correct data: 1, Queue size: 1, Sim time: 25005
Correct data: 0, Queue size: 1, Sim time: 25225
Correct data: 0, Queue size: 1, Sim time: 25445
Correct data: 0, Queue size: 1, Sim time: 25665
Correct data: 0, Queue size: 1, Sim time: 25885
Correct data: 0, Queue size: 1, Sim time: 26105
Correct data: 0, Queue size: 1, Sim time: 26325
Correct data: 1, Queue size: 1, Sim time: 26545
Correct data: 1, Queue size: 1, Sim time: 26765
Correct data: 1, Queue size: 1, Sim time: 26985
Correct data: 0, Queue size: 1, Sim time: 27205
Correct data: 0, Queue size: 1, Sim time: 27425
Correct data: 1, Queue size: 1, Sim time: 27645
Correct data: 1, Queue size: 1, Sim time: 27865
Correct data: 0, Queue size: 1, Sim time: 28085
Correct data: 0, Queue size: 1, Sim time: 28305
Correct data: 1, Queue size: 1, Sim time: 28525
Correct data: 1, Queue size: 1, Sim time: 28745
Correct data: 1, Queue size: 1, Sim time: 28965
Correct data: 1, Queue size: 1, Sim time: 29185
Correct data: 1, Queue size: 1, Sim time: 29405
Correct data: 1, Queue size: 1, Sim time: 29625
Correct data: 0, Queue size: 1, Sim time: 29845
Correct data: 0, Queue size: 1, Sim time: 30065
Correct data: 1, Queue size: 1, Sim time: 30285
Correct data: 0, Queue size: 1, Sim time: 30505
Correct data: 0, Queue size: 1, Sim time: 30725
Correct data: 0, Queue size: 1, Sim time: 30945
Correct data: 0, Queue size: 1, Sim time: 31165
Correct data: 0, Queue size: 1, Sim time: 31385
Correct data: 1, Queue size: 1, Sim time: 31605
Correct data: 1, Queue size: 1, Sim time: 31825
Correct data: 0, Queue size: 1, Sim time: 32045
Correct data: 1, Queue size: 1, Sim time: 38785
Correct data: 1, Queue size: 1, Sim time: 39005
Correct data: 1, Queue size: 1, Sim time: 39225
Correct data: 1, Queue size: 1, Sim time: 39445
Correct data: 1, Queue size: 1, Sim time: 39665
Correct data: 0, Queue size: 1, Sim time: 39885
Correct data: 1, Queue size: 1, Sim time: 40105
Correct data: 0, Queue size: 1, Sim time: 40325
Correct data: 0, Queue size: 1, Sim time: 40545
Correct data: 1, Queue size: 1, Sim time: 40765
Correct data: 1, Queue size: 1, Sim time: 40985
Correct data: 0, Queue size: 1, Sim time: 41205
Correct data: 1, Queue size: 1, Sim time: 41425
Correct data: 0, Queue size: 1, Sim time: 41645
Correct data: 1, Queue size: 1, Sim time: 41865
Correct data: 1, Queue size: 1, Sim time: 42085
Correct data: 0, Queue size: 1, Sim time: 42305
Correct data: 0, Queue size: 1, Sim time: 42525
Correct data: 0, Queue size: 1, Sim time: 42745
Correct data: 0, Queue size: 1, Sim time: 42965
Correct data: 0, Queue size: 1, Sim time: 43185
Correct data: 1, Queue size: 1, Sim time: 43405
Correct data: 0, Queue size: 1, Sim time: 43625
Correct data: 1, Queue size: 1, Sim time: 43845
Correct data: 1, Queue size: 1, Sim time: 44065
Correct data: 1, Queue size: 1, Sim time: 44285
Correct data: 0, Queue size: 1, Sim time: 44505
Correct data: 0, Queue size: 1, Sim time: 44725
Correct data: 1, Queue size: 1, Sim time: 44945
Correct data: 1, Queue size: 1, Sim time: 45165
Correct data: 0, Queue size: 1, Sim time: 45385
Correct data: 0, Queue size: 1, Sim time: 45605
Correct data: 0, Queue size: 1, Sim time: 45825
Correct data: 1, Queue size: 1, Sim time: 46045
Correct data: 0, Queue size: 1, Sim time: 46265
Correct data: 0, Queue size: 1, Sim time: 46485
Correct data: 1, Queue size: 1, Sim time: 46705
Correct data: 1, Queue size: 1, Sim time: 46925
Correct data: 1, Queue size: 1, Sim time: 47145
Correct data: 1, Queue size: 1, Sim time: 47365
Correct data: 1, Queue size: 1, Sim time: 47625
Correct data: 0, Queue size: 1, Sim time: 47885
Incorrect data: 0, Queue size: 2, Sim time: 48185
Correct data: 0, Queue size: 2, Sim time: 48445
Correct data: 1, Queue size: 1, Sim time: 55205
Correct data: 1, Queue size: 1, Sim time: 55425
Correct data: 1, Queue size: 1, Sim time: 55645
Correct data: 0, Queue size: 1, Sim time: 55865
Correct data: 1, Queue size: 1, Sim time: 56085
Correct data: 0, Queue size: 1, Sim time: 56305
Correct data: 0, Queue size: 1, Sim time: 56525
Correct data: 0, Queue size: 1, Sim time: 56745
Correct data: 0, Queue size: 1, Sim time: 56965
Correct data: 1, Queue size: 1, Sim time: 57185
Correct data: 0, Queue size: 1, Sim time: 57405
Correct data: 0, Queue size: 1, Sim time: 57625
Correct data: 1, Queue size: 1, Sim time: 57845
Correct data: 0, Queue size: 1, Sim time: 58065
Correct data: 0, Queue size: 1, Sim time: 58285
Correct data: 1, Queue size: 1, Sim time: 58505
Correct data: 0, Queue size: 1, Sim time: 58725
Correct data: 1, Queue size: 1, Sim time: 58945
Correct data: 0, Queue size: 1, Sim time: 59165
Correct data: 0, Queue size: 1, Sim time: 59385
Correct data: 1, Queue size: 1, Sim time: 59605
Correct data: 1, Queue size: 1, Sim time: 59825
Correct data: 1, Queue size: 1, Sim time: 60045
Correct data: 1, Queue size: 1, Sim time: 60265
Correct data: 1, Queue size: 1, Sim time: 60485
Correct data: 0, Queue size: 1, Sim time: 60705
Correct data: 1, Queue size: 1, Sim time: 60925
Correct data: 0, Queue size: 1, Sim time: 61145
Correct data: 1, Queue size: 1, Sim time: 61365
Correct data: 1, Queue size: 1, Sim time: 61585
Correct data: 1, Queue size: 1, Sim time: 61805
Correct data: 0, Queue size: 1, Sim time: 62025
Correct data: 0, Queue size: 1, Sim time: 62245
Correct data: 0, Queue size: 1, Sim time: 62465
Correct data: 0, Queue size: 1, Sim time: 62685
Correct data: 0, Queue size: 1, Sim time: 62905
Correct data: 1, Queue size: 1, Sim time: 63125
Correct data: 1, Queue size: 1, Sim time: 63345
Correct data: 0, Queue size: 1, Sim time: 63565
Correct data: 0, Queue size: 1, Sim time: 63785
Correct data: 1, Queue size: 1, Sim time: 64005
Correct data: 0, Queue size: 1, Sim time: 64225
Correct data: 0, Queue size: 1, Sim time: 64445
Correct data: 0, Queue size: 1, Sim time: 64665
Correct data: 1, Queue size: 1, Sim time: 64885
Correct data: 1, Queue size: 1, Sim time: 71625
Correct data: 0, Queue size: 1, Sim time: 71845
Correct data: 1, Queue size: 1, Sim time: 72065
Correct data: 1, Queue size: 1, Sim time: 72285
Correct data: 1, Queue size: 1, Sim time: 72505
Correct data: 1, Queue size: 1, Sim time: 72725
Correct data: 1, Queue size: 1, Sim time: 72945
Correct data: 1, Queue size: 1, Sim time: 73165
Correct data: 0, Queue size: 1, Sim time: 73385
Correct data: 1, Queue size: 1, Sim time: 73605
Correct data: 1, Queue size: 1, Sim time: 73825
Correct data: 1, Queue size: 1, Sim time: 74045
Correct data: 0, Queue size: 1, Sim time: 74265
Correct data: 1, Queue size: 1, Sim time: 74485
Correct data: 1, Queue size: 1, Sim time: 74705
Correct data: 0, Queue size: 1, Sim time: 74925
Correct data: 0, Queue size: 1, Sim time: 75145
Correct data: 0, Queue size: 1, Sim time: 75365
Correct data: 1, Queue size: 1, Sim time: 75585
Correct data: 1, Queue size: 1, Sim time: 75805
Correct data: 0, Queue size: 1, Sim time: 76025
Correct data: 0, Queue size: 1, Sim time: 76245
Correct data: 1, Queue size: 1, Sim time: 76465
Correct data: 0, Queue size: 1, Sim time: 76685
Correct data: 1, Queue size: 1, Sim time: 76905
Correct data: 1, Queue size: 1, Sim time: 77125
Correct data: 1, Queue size: 1, Sim time: 77345
Correct data: 1, Queue size: 1, Sim time: 77565
Correct data: 0, Queue size: 1, Sim time: 77785
Correct data: 1, Queue size: 1, Sim time: 78005
Correct data: 1, Queue size: 1, Sim time: 78225
Correct data: 0, Queue size: 1, Sim time: 78445
Correct data: 1, Queue size: 1, Sim time: 78665
Correct data: 0, Queue size: 1, Sim time: 78885
Correct data: 1, Queue size: 1, Sim time: 79105
Correct data: 0, Queue size: 1, Sim time: 79325
Correct data: 1, Queue size: 1, Sim time: 79545
Correct data: 0, Queue size: 1, Sim time: 79765
Correct data: 0, Queue size: 1, Sim time: 79985
Correct data: 0, Queue size: 1, Sim time: 80205
Correct data: 0, Queue size: 1, Sim time: 80425
Correct data: 1, Queue size: 1, Sim time: 80645
Correct data: 0, Queue size: 1, Sim time: 80865
Correct data: 0, Queue size: 1, Sim time: 81085
Correct data: 0, Queue size: 1, Sim time: 81305
Correct data: 1, Queue size: 1, Sim time: 88045
Correct data: 0, Queue size: 1, Sim time: 88265
Correct data: 1, Queue size: 1, Sim time: 88485
Correct data: 1, Queue size: 1, Sim time: 88705
Correct data: 0, Queue size: 1, Sim time: 88925
Correct data: 1, Queue size: 1, Sim time: 89145
Correct data: 0, Queue size: 1, Sim time: 89365
Correct data: 0, Queue size: 1, Sim time: 89585
Correct data: 1, Queue size: 1, Sim time: 89805
