logs/iverilog_log.txt
WARNING: ../source/detect_preamble/preamble_correlator.v:28: $readmemb: Standard inconsistency, following 1364-2005.
WARNING: ../source/detect_preamble/preamble_correlator.v:29: $readmemb: Standard inconsistency, following 1364-2005.
WARNING: ../source/detect_preamble/preamble_correlator.v:30: $readmemb: Standard inconsistency, following 1364-2005.
VCD info: dumpfile dump.vcd opened for output.
Correct data: 1, Queue size: 1, Sim time: 5855
Correct data: 0, Queue size: 1, Sim time: 5875
Correct data: 1, Queue size: 1, Sim time: 5905
Correct data: 1, Queue size: 1, Sim time: 5925
Correct data: 1, Queue size: 0, Sim time: 5945
Correct data: 0, Queue size: 1, Sim time: 12515
Correct data: 0, Queue size: 2, Sim time: 12555
Correct data: 1, Queue size: 2, Sim time: 12575
Correct data: 0, Queue size: 1, Sim time: 12585
Correct data: 0, Queue size: 0, Sim time: 12605
Correct data: 1, Queue size: 0, Sim time: 18975
Correct data: 1, Queue size: 1, Sim time: 19045
Correct data: 0, Queue size: 2, Sim time: 19065
Correct data: 1, Queue size: 1, Sim time: 19085
Correct data: 0, Queue size: 0, Sim time: 19095
Correct data: 0, Queue size: 1, Sim time: 25195
Correct data: 0, Queue size: 0, Sim time: 25215
Correct data: 1, Queue size: 2, Sim time: 25265
Correct data: 0, Queue size: 1, Sim time: 25275
Correct data: 1, Queue size: 0, Sim time: 25285
Correct data: 0, Queue size: 1, Sim time: 32115
Correct data: 1, Queue size: 1, Sim time: 32135
Correct data: 0, Queue size: 2, Sim time: 32175
Correct data: 0, Queue size: 1, Sim time: 32185
Correct data: 0, Queue size: 0, Sim time: 32205
Correct data: 1, Queue size: 1, Sim time: 38835
Correct data: 1, Queue size: 0, Sim time: 38865
Correct data: 1, Queue size: 2, Sim time: 38945
Correct data: 0, Queue size: 1, Sim time: 38955
Correct data: 1, Queue size: 0, Sim time: 38965
Correct data: 0, Queue size: 2, Sim time: 45165
Correct data: 1, Queue size: 2, Sim time: 45185
Correct data: 1, Queue size: 1, Sim time: 45195
Correct data: 1, Queue size: 0, Sim time: 45205
Correct data: 1, Queue size: 0, Sim time: 45245
Correct data: 0, Queue size: 0, Sim time: 52025
Correct data: 0, Queue size: 1, Sim time: 52065
Correct data: 0, Queue size: 1, Sim time: 52085
Correct data: 1, Queue size: 1, Sim time: 52105
Correct data: 0, Queue size: 0, Sim time: 52125
Correct data: 0, Queue size: 2, Sim time: 58315
Correct data: 0, Queue size: 1, Sim time: 58325
Correct data: 1, Queue size: 2, Sim time: 58345
Correct data: 1, Queue size: 1, Sim time: 58365
Correct data: 0, Queue size: 0, Sim time: 58375
Correct data: 1, Queue size: 1, Sim time: 65255
Correct data: 1, Queue size: 1, Sim time: 65285
Correct data: 1, Queue size: 0, Sim time: 65305
Correct data: 0, Queue size: 1, Sim time: 65345
Correct data: 1, Queue size: 0, Sim time: 65375
Correct data: 0, Queue size: 1, Sim time: 72005
Correct data: 1, Queue size: 1, Sim time: 72015
Correct data: 1, Queue size: 1, Sim time: 72055
Correct data: 1, Queue size: 0, Sim time: 72065
Correct data: 1, Queue size: 0, Sim time: 72105
Correct data: 1, Queue size: 1, Sim time: 78325
Correct data: 0, Queue size: 1, Sim time: 78345
Correct data: 0, Queue size: 1, Sim time: 78365
Correct data: 0, Queue size: 1, Sim time: 78395
Correct data: 0, Queue size: 0, Sim time: 78405
Correct data: 1, Queue size: 2, Sim time: 84545
Correct data: 0, Queue size: 2, Sim time: 84565
Correct data: 1, Queue size: 2, Sim time: 84575
Correct data: 0, Queue size: 1, Sim time: 84585
Correct data: 1, Queue size: 0, Sim time: 84605
Correct data: 1, Queue size: 2, Sim time: 91245
Correct data: 1, Queue size: 2, Sim time: 91255
Correct data: 1, Queue size: 1, Sim time: 91265
Correct data: 1, Queue size: 1, Sim time: 91285
Correct data: 1, Queue size: 0, Sim time: 91315
Correct data: 0, Queue size: 2, Sim time: 97605
Correct data: 0, Queue size: 3, Sim time: 97615
Correct data: 1, Queue size: 2, Sim time: 97635
Correct data: 0, Queue size: 1, Sim time: 97645
Correct data: 0, Queue size: 0, Sim time: 97655
Correct data: 1, Queue size: 2, Sim time: 104335
Correct data: 0, Queue size: 1, Sim time: 104345
Correct data: 0, Queue size: 0, Sim time: 104365
Correct data: 0, Queue size: 1, Sim time: 104415
Correct data: 0, Queue size: 0, Sim time: 104445
Correct data: 0, Queue size: 2, Sim time: 111085
Correct data: 1, Queue size: 2, Sim time: 111095
Correct data: 0, Queue size: 2, Sim time: 111115
Correct data: 0, Queue size: 1, Sim time: 111135
Correct data: 1, Queue size: 0, Sim time: 111145
Correct data: 1, Queue size: 2, Sim time: 118105
Correct data: 1, Queue size: 3, Sim time: 118115
Correct data: 0, Queue size: 2, Sim time: 118135
Correct data: 1, Queue size: 1, Sim time: 118145
Correct data: 1, Queue size: 0, Sim time: 118155
Correct data: 0, Queue size: 2, Sim time: 124385
Correct data: 1, Queue size: 3, Sim time: 124405
Correct data: 0, Queue size: 2, Sim time: 124415
Correct data: 1, Queue size: 1, Sim time: 124425
Correct data: 1, Queue size: 0, Sim time: 124435
Correct data: 1, Queue size: 2, Sim time: 130395
Correct data: 0, Queue size: 1, Sim time: 130405
Correct data: 0, Queue size: 1, Sim time: 130415
Correct data: 1, Queue size: 1, Sim time: 130445
Correct data: 0, Queue size: 0, Sim time: 130465
Correct data: 1, Queue size: 3, Sim time: 136595
Correct data: 1, Queue size: 2, Sim time: 136615
Correct data: 1, Queue size: 1, Sim time: 136625
Correct data: 1, Queue size: 0, Sim time: 136635
Correct data: 1, Queue size: 0, Sim time: 136685
Correct data: 0, Queue size: 2, Sim time: 143115
Correct data: 0, Queue size: 1, Sim time: 143125
Correct data: 0, Queue size: 2, Sim time: 143155
Correct data: 0, Queue size: 1, Sim time: 143165
Correct data: 1, Queue size: 0, Sim time: 143175
Correct data: 1, Queue size: 2, Sim time: 149095
Correct data: 0, Queue size: 2, Sim time: 149115
Correct data: 0, Queue size: 1, Sim time: 149125
Correct data: 0, Queue size: 0, Sim time: 149145
Correct data: 0, Queue size: 0, Sim time: 149185
Correct data: 0, Queue size: 1, Sim time: 155575
Correct data: 1, Queue size: 1, Sim time: 155605
Correct data: 0, Queue size: 1, Sim time: 155635
Correct data: 0, Queue size: 1, Sim time: 155655
Correct data: 0, Queue size: 0, Sim time: 155685
Correct data: 0, Queue size: 1, Sim time: 161965
Correct data: 1, Queue size: 2, Sim time: 161975
Correct data: 1, Queue size: 2, Sim time: 162005
Correct data: 0, Queue size: 1, Sim time: 162015
Correct data: 0, Queue size: 0, Sim time: 162025
Correct data: 0, Queue size: 1, Sim time: 168655
Correct data: 0, Queue size: 1, Sim time: 168685
Correct data: 1, Queue size: 1, Sim time: 168705
Correct data: 0, Queue size: 1, Sim time: 168725
Correct data: 0, Queue size: 0, Sim time: 168745
Correct data: 1, Queue size: 0, Sim time: 175265
Correct data: 1, Queue size: 3, Sim time: 175315
Correct data: 0, Queue size: 2, Sim time: 175325
Correct data: 0, Queue size: 1, Sim time: 175335
Correct data: 1, Queue size: 0, Sim time: 175355
Correct data: 1, Queue size: 2, Sim time: 182415
Correct data: 1, Queue size: 1, Sim time: 182425
Correct data: 0, Queue size: 2, Sim time: 182455
Correct data: 1, Queue size: 1, Sim time: 182465
Correct data: 0, Queue size: 0, Sim time: 182485
Correct data: 0, Queue size: 4, Sim time: 188915
Correct data: 1, Queue size: 3, Sim time: 188925
Correct data: 0, Queue size: 2, Sim time: 188935
Correct data: 0, Queue size: 1, Sim time: 188945
Correct data: 1, Queue size: 0, Sim time: 188955
Correct data: 1, Queue size: 2, Sim time: 195445
Correct data: 0, Queue size: 3, Sim time: 195455
Correct data: 0, Queue size: 2, Sim time: 195475
Correct data: 1, Queue size: 1, Sim time: 195485
Correct data: 0, Queue size: 0, Sim time: 195495
Correct data: 0, Queue size: 1, Sim time: 201635
Correct data: 0, Queue size: 0, Sim time: 201655
Correct data: 1, Queue size: 2, Sim time: 201715
Correct data: 0, Queue size: 1, Sim time: 201725
Correct data: 0, Queue size: 0, Sim time: 201745
Correct data: 0, Queue size: 2, Sim time: 208055
Correct data: 1, Queue size: 1, Sim time: 208075
Correct data: 1, Queue size: 1, Sim time: 208095
Correct data: 0, Queue size: 1, Sim time: 208135
Correct data: 1, Queue size: 0, Sim time: 208145
Correct data: 0, Queue size: 0, Sim time: 214475
Correct data: 1, Queue size: 3, Sim time: 214535
Correct data: 1, Queue size: 2, Sim time: 214545
Correct data: 0, Queue size: 1, Sim time: 214555
Correct data: 0, Queue size: 0, Sim time: 214565
Correct data: 1, Queue size: 1, Sim time: 220685
Correct data: 1, Queue size: 0, Sim time: 220705
Correct data: 0, Queue size: 2, Sim time: 220745
Correct data: 0, Queue size: 1, Sim time: 220755
Correct data: 0, Queue size: 0, Sim time: 220765
Correct data: 1, Queue size: 1, Sim time: 227075
Correct data: 0, Queue size: 2, Sim time: 227115
Correct data: 0, Queue size: 2, Sim time: 227145
Correct data: 1, Queue size: 1, Sim time: 227155
Correct data: 1, Queue size: 0, Sim time: 227165
Correct data: 1, Queue size: 2, Sim time: 233545
Correct data: 1, Queue size: 2, Sim time: 233565
Correct data: 1, Queue size: 2, Sim time: 233575
Correct data: 1, Queue size: 1, Sim time: 233595
Correct data: 1, Queue size: 0, Sim time: 233605
Correct data: 0, Queue size: 3, Sim time: 239595
Correct data: 0, Queue size: 2, Sim time: 239605
Correct data: 1, Queue size: 1, Sim time: 239615
Correct data: 1, Queue size: 0, Sim time: 239625
Correct data: 1, Queue size: 0, Sim time: 239675
Correct data: 0, Queue size: 1, Sim time: 246025
Correct data: 1, Queue size: 1, Sim time: 246045
Correct data: 0, Queue size: 2, Sim time: 246065
Correct data: 0, Queue size: 1, Sim time: 246085
Correct data: 0, Queue size: 0, Sim time: 246095
Correct data: 1, Queue size: 1, Sim time: 252565
Correct data: 1, Queue size: 1, Sim time: 252585
Correct data: 0, Queue size: 0, Sim time: 252605
Correct data: 1, Queue size: 1, Sim time: 252675
Correct data: 1, Queue size: 0, Sim time: 252685
Correct data: 0, Queue size: 4, Sim time: 258795
Correct data: 0, Queue size: 3, Sim time: 258805
Correct data: 1, Queue size: 2, Sim time: 258815
Correct data: 0, Queue size: 1, Sim time: 258825
Correct data: 1, Queue size: 0, Sim time: 258835
Correct data: 1, Queue size: 1, Sim time: 265355
Correct data: 0, Queue size: 1, Sim time: 265385
Correct data: 1, Queue size: 2, Sim time: 265415
Correct data: 1, Queue size: 1, Sim time: 265425
Correct data: 1, Queue size: 0, Sim time: 265435
Correct data: 1, Queue size: 3, Sim time: 271635
Correct data: 0, Queue size: 2, Sim time: 271645
Correct data: 0, Queue size: 2, Sim time: 271655
Correct data: 1, Queue size: 1, Sim time: 271675
Correct data: 0, Queue size: 0, Sim time: 271685
Correct data: 0, Queue size: 3, Sim time: 278395
Correct data: 0, Queue size: 3, Sim time: 278415
Correct data: 0, Queue size: 2, Sim time: 278425
Correct data: 0, Queue size: 1, Sim time: 278435
Correct data: 1, Queue size: 0, Sim time: 278455
Correct data: 0, Queue size: 1, Sim time: 284585
Correct data: 1, Queue size: 2, Sim time: 284615
Correct data: 0, Queue size: 2, Sim time: 284635
Correct data: 0, Queue size: 1, Sim time: 284645
Correct data: 1, Queue size: 0, Sim time: 284675
Correct data: 1, Queue size: 2, Sim time: 290875
Correct data: 1, Queue size: 2, Sim time: 290895
Correct data: 1, Queue size: 2, Sim time: 290915
Correct data: 1, Queue size: 1, Sim time: 290935
Correct data: 1, Queue size: 0, Sim time: 290945
Correct data: 0, Queue size: 2, Sim time: 297265
Correct data: 0, Queue size: 3, Sim time: 297285
Correct data: 1, Queue size: 2, Sim time: 297295
Correct data: 1, Queue size: 1, Sim time: 297305
Correct data: 0, Queue size: 0, Sim time: 297315
Correct data: 1, Queue size: 1, Sim time: 303615
Correct data: 1, Queue size: 0, Sim time: 303645
Correct data: 0, Queue size: 2, Sim time: 303695
Correct data: 0, Queue size: 1, Sim time: 303705
Correct data: 0, Queue size: 0, Sim time: 303715
Correct data: 1, Queue size: 0, Sim time: 310265
Correct data: 0, Queue size: 1, Sim time: 310315
Correct data: 0, Queue size: 2, Sim time: 310355
Correct data: 1, Queue size: 1, Sim time: 310365
Correct data: 0, Queue size: 0, Sim time: 310375
Correct data: 1, Queue size: 0, Sim time: 316895
Correct data: 0, Queue size: 3, Sim time: 316945
Correct data: 1, Queue size: 2, Sim time: 316955
Correct data: 1, Queue size: 1, Sim time: 316965
Correct data: 0, Queue size: 0, Sim time: 316975
Correct data: 0, Queue size: 1, Sim time: 323805
Correct data: 0, Queue size: 1, Sim time: 323835
Correct data: 0, Queue size: 1, Sim time: 323865
Correct data: 0, Queue size: 1, Sim time: 323895
Correct data: 1, Queue size: 0, Sim time: 323905
Correct data: 0, Queue size: 0, Sim time: 330345
Correct data: 0, Queue size: 0, Sim time: 330385
Correct data: 1, Queue size: 2, Sim time: 330445
Correct data: 1, Queue size: 1, Sim time: 330455
Correct data: 1, Queue size: 0, Sim time: 330465
Correct data: 1, Queue size: 1, Sim time: 336945
Correct data: 1, Queue size: 2, Sim time: 336965
Correct data: 1, Queue size: 2, Sim time: 336985
Correct data: 0, Queue size: 1, Sim time: 336995
Correct data: 0, Queue size: 0, Sim time: 337015
Correct data: 0, Queue size: 1, Sim time: 343315
Correct data: 0, Queue size: 3, Sim time: 343355
Correct data: 1, Queue size: 2, Sim time: 343365
Correct data: 1, Queue size: 1, Sim time: 343375
Correct data: 1, Queue size: 0, Sim time: 343395
Correct data: 1, Queue size: 2, Sim time: 349885
Correct data: 1, Queue size: 1, Sim time: 349895
Correct data: 1, Queue size: 1, Sim time: 349915
Correct data: 0, Queue size: 1, Sim time: 349955
Correct data: 1, Queue size: 0, Sim time: 349965
Correct data: 0, Queue size: 3, Sim time: 356435
Correct data: 1, Queue size: 2, Sim time: 356445
Correct data: 1, Queue size: 2, Sim time: 356465
Correct data: 1, Queue size: 1, Sim time: 356475
Correct data: 0, Queue size: 0, Sim time: 356485
Correct data: 0, Queue size: 0, Sim time: 362495
Correct data: 0, Queue size: 0, Sim time: 362545
Correct data: 1, Queue size: 0, Sim time: 362595
Correct data: 0, Queue size: 1, Sim time: 362645
Correct data: 0, Queue size: 0, Sim time: 362655
Correct data: 0, Queue size: 1, Sim time: 368675
Correct data: 0, Queue size: 0, Sim time: 368705
Correct data: 0, Queue size: 2, Sim time: 368745
Correct data: 1, Queue size: 1, Sim time: 368755
Correct data: 1, Queue size: 0, Sim time: 368765
Correct data: 0, Queue size: 2, Sim time: 374855
Correct data: 1, Queue size: 1, Sim time: 374865
Correct data: 1, Queue size: 1, Sim time: 374895
Correct data: 0, Queue size: 1, Sim time: 374915
Correct data: 0, Queue size: 0, Sim time: 374945
Correct data: 0, Queue size: 1, Sim time: 381505
Correct data: 1, Queue size: 0, Sim time: 381515
Correct data: 1, Queue size: 1, Sim time: 381575
Correct data: 0, Queue size: 0, Sim time: 381615
Correct data: 0, Queue size: 0, Sim time: 381685
Correct data: 0, Queue size: 2, Sim time: 388095
Correct data: 1, Queue size: 2, Sim time: 388125
Correct data: 0, Queue size: 2, Sim time: 388135
Correct data: 1, Queue size: 1, Sim time: 388155
Correct data: 1, Queue size: 0, Sim time: 388165
Correct data: 1, Queue size: 3, Sim time: 394725
Correct data: 0, Queue size: 3, Sim time: 394735
Correct data: 0, Queue size: 2, Sim time: 394745
Correct data: 1, Queue size: 1, Sim time: 394755
Correct data: 0, Queue size: 0, Sim time: 394765
Correct data: 0, Queue size: 2, Sim time: 401345
Correct data: 0, Queue size: 1, Sim time: 401355
Correct data: 0, Queue size: 0, Sim time: 401365
Correct data: 1, Queue size: 0, Sim time: 401405
Correct data: 0, Queue size: 0, Sim time: 401445
Correct data: 0, Queue size: 1, Sim time: 408245
Correct data: 1, Queue size: 3, Sim time: 408275
Correct data: 0, Queue size: 2, Sim time: 408285
Correct data: 0, Queue size: 1, Sim time: 408295
Correct data: 0, Queue size: 0, Sim time: 408305
Correct data: 0, Queue size: 2, Sim time: 414745
Correct data: 0, Queue size: 3, Sim time: 414755
Correct data: 1, Queue size: 2, Sim time: 414765
Correct data: 1, Queue size: 1, Sim time: 414785
Correct data: 1, Queue size: 0, Sim time: 414795
Correct data: 0, Queue size: 3, Sim time: 421035
Correct data: 0, Queue size: 2, Sim time: 421045
Correct data: 0, Queue size: 2, Sim time: 421055
Correct data: 1, Queue size: 1, Sim time: 421065
Correct data: 1, Queue size: 0, Sim time: 421095
Correct data: 0, Queue size: 1, Sim time: 427285
Correct data: 1, Queue size: 2, Sim time: 427295
Correct data: 1, Queue size: 1, Sim time: 427325
Correct data: 0, Queue size: 1, Sim time: 427335
Correct data: 1, Queue size: 0, Sim time: 427375
Correct data: 1, Queue size: 1, Sim time: 433795
Correct data: 0, Queue size: 1, Sim time: 433815
Correct data: 1, Queue size: 1, Sim time: 433845
Correct data: 0, Queue size: 1, Sim time: 433865
Correct data: 1, Queue size: 0, Sim time: 433885
Correct data: 1, Queue size: 2, Sim time: 440225
Correct data: 0, Queue size: 2, Sim time: 440235
Correct data: 0, Queue size: 1, Sim time: 440245
Correct data: 1, Queue size: 1, Sim time: 440265
Correct data: 0, Queue size: 0, Sim time: 440285
Correct data: 0, Queue size: 2, Sim time: 447105
Correct data: 1, Queue size: 2, Sim time: 447115
Correct data: 0, Queue size: 1, Sim time: 447125
Correct data: 0, Queue size: 1, Sim time: 447155
Correct data: 0, Queue size: 0, Sim time: 447165
