logs/iverilog_log.txt
WARNING: ../source/detect_preamble/preamble_correlator.v:28: $readmemb: Standard inconsistency, following 1364-2005.
WARNING: ../source/detect_preamble/preamble_correlator.v:29: $readmemb: Standard inconsistency, following 1364-2005.
WARNING: ../source/detect_preamble/preamble_correlator.v:30: $readmemb: Standard inconsistency, following 1364-2005.
WARNING: ../source/detect_bits/bits_correlator.v:27: $readmemb: Standard inconsistency, following 1364-2005.
WARNING: ../source/detect_bits/bits_correlator.v:28: $readmemb: Standard inconsistency, following 1364-2005.
WARNING: ../source/detect_bits/bits_detector.v:20: $readmemb: Standard inconsistency, following 1364-2005.
VCD info: dumpfile dump.vcd opened for output.
Correct data: 1, Queue size: 1, Sim time: 3025
Correct data: 0, Queue size: 1, Sim time: 3135
Correct data: 1, Queue size: 1, Sim time: 3245
Correct data: 1, Queue size: 1, Sim time: 3355
Correct data: 1, Queue size: 1, Sim time: 3465
Correct data: 1, Queue size: 1, Sim time: 3575
Correct data: 0, Queue size: 1, Sim time: 3685
Correct data: 1, Queue size: 1, Sim time: 3795
Correct data: 1, Queue size: 1, Sim time: 3905
Correct data: 0, Queue size: 1, Sim time: 4015
Correct data: 1, Queue size: 1, Sim time: 4125
Correct data: 0, Queue size: 1, Sim time: 4235
Correct data: 1, Queue size: 1, Sim time: 4345
Correct data: 1, Queue size: 1, Sim time: 4455
Correct data: 0, Queue size: 1, Sim time: 4565
Correct data: 0, Queue size: 1, Sim time: 4675
Correct data: 1, Queue size: 1, Sim time: 4785
Correct data: 1, Queue size: 1, Sim time: 4895
Correct data: 1, Queue size: 1, Sim time: 5005
Correct data: 0, Queue size: 1, Sim time: 5115
Correct data: 0, Queue size: 1, Sim time: 5225
Correct data: 1, Queue size: 1, Sim time: 5335
Correct data: 0, Queue size: 1, Sim time: 5445
Correct data: 1, Queue size: 1, Sim time: 5555
Correct data: 1, Queue size: 1, Sim time: 5665
Correct data: 0, Queue size: 1, Sim time: 5775
Correct data: 0, Queue size: 1, Sim time: 5885
Correct data: 0, Queue size: 1, Sim time: 5995
Correct data: 1, Queue size: 1, Sim time: 6105
Correct data: 1, Queue size: 1, Sim time: 6215
Correct data: 1, Queue size: 1, Sim time: 6325
Correct data: 1, Queue size: 1, Sim time: 6435
Correct data: 1, Queue size: 1, Sim time: 6545
Correct data: 0, Queue size: 1, Sim time: 6655
Correct data: 0, Queue size: 1, Sim time: 6765
Correct data: 1, Queue size: 1, Sim time: 6875
Correct data: 0, Queue size: 1, Sim time: 6985
Correct data: 0, Queue size: 1, Sim time: 7095
Correct data: 0, Queue size: 1, Sim time: 7205
Correct data: 1, Queue size: 1, Sim time: 7315
Correct data: 1, Queue size: 1, Sim time: 7425
Correct data: 1, Queue size: 1, Sim time: 7535
Correct data: 0, Queue size: 1, Sim time: 7645
Correct data: 0, Queue size: 1, Sim time: 7755
Correct data: 1, Queue size: 1, Sim time: 7865
Correct data: 1, Queue size: 1, Sim time: 7975
Correct data: 1, Queue size: 1, Sim time: 8085
Correct data: 0, Queue size: 1, Sim time: 8195
Correct data: 1, Queue size: 1, Sim time: 8305
Correct data: 1, Queue size: 1, Sim time: 8415
Correct data: 0, Queue size: 1, Sim time: 8525
Correct data: 1, Queue size: 1, Sim time: 8635
Correct data: 1, Queue size: 1, Sim time: 8745
Correct data: 0, Queue size: 1, Sim time: 8855
Correct data: 0, Queue size: 1, Sim time: 8965
Correct data: 1, Queue size: 1, Sim time: 9075
Correct data: 1, Queue size: 1, Sim time: 9185
Correct data: 0, Queue size: 1, Sim time: 9295
Correct data: 0, Queue size: 1, Sim time: 9405
Correct data: 1, Queue size: 1, Sim time: 9515
Correct data: 0, Queue size: 1, Sim time: 9625
Correct data: 1, Queue size: 1, Sim time: 9735
Correct data: 1, Queue size: 1, Sim time: 9845
Correct data: 0, Queue size: 1, Sim time: 9955
Correct data: 1, Queue size: 1, Sim time: 10065
Correct data: 0, Queue size: 1, Sim time: 10175
Correct data: 1, Queue size: 1, Sim time: 10285
Correct data: 1, Queue size: 1, Sim time: 10395
Correct data: 0, Queue size: 1, Sim time: 10505
Correct data: 0, Queue size: 1, Sim time: 10615
Correct data: 1, Queue size: 1, Sim time: 10725
Correct data: 0, Queue size: 1, Sim time: 10835
Correct data: 1, Queue size: 1, Sim time: 10945
Correct data: 1, Queue size: 1, Sim time: 11055
Correct data: 0, Queue size: 1, Sim time: 11165
Correct data: 1, Queue size: 1, Sim time: 11275
Correct data: 0, Queue size: 1, Sim time: 11385
Correct data: 0, Queue size: 1, Sim time: 11495
Correct data: 0, Queue size: 1, Sim time: 11605
Correct data: 0, Queue size: 1, Sim time: 11715
Correct data: 1, Queue size: 1, Sim time: 11825
Correct data: 1, Queue size: 1, Sim time: 11935
Correct data: 0, Queue size: 1, Sim time: 12045
Correct data: 0, Queue size: 1, Sim time: 12155
Correct data: 1, Queue size: 1, Sim time: 12265
Correct data: 0, Queue size: 1, Sim time: 12375
Correct data: 1, Queue size: 1, Sim time: 12485
Correct data: 0, Queue size: 1, Sim time: 12595
Correct data: 1, Queue size: 1, Sim time: 12705
Correct data: 0, Queue size: 1, Sim time: 12815
Correct data: 0, Queue size: 1, Sim time: 12925
Correct data: 0, Queue size: 1, Sim time: 13035
Correct data: 1, Queue size: 1, Sim time: 13145
Correct data: 0, Queue size: 1, Sim time: 13255
Correct data: 0, Queue size: 1, Sim time: 13365
Correct data: 1, Queue size: 1, Sim time: 13475
Correct data: 0, Queue size: 1, Sim time: 13585
Correct data: 0, Queue size: 1, Sim time: 13695
Correct data: 0, Queue size: 1, Sim time: 13805
Correct data: 1, Queue size: 1, Sim time: 13915
Correct data: 1, Queue size: 1, Sim time: 14025
Correct data: 0, Queue size: 1, Sim time: 14135
Correct data: 0, Queue size: 1, Sim time: 14245
Correct data: 1, Queue size: 1, Sim time: 14355
Correct data: 0, Queue size: 1, Sim time: 14465
Correct data: 1, Queue size: 1, Sim time: 14575
Correct data: 0, Queue size: 1, Sim time: 14685
Correct data: 0, Queue size: 1, Sim time: 14795
Correct data: 1, Queue size: 1, Sim time: 14905
Correct data: 1, Queue size: 1, Sim time: 15015
Correct data: 1, Queue size: 1, Sim time: 15125
Correct data: 0, Queue size: 1, Sim time: 15235
Correct data: 1, Queue size: 1, Sim time: 15345
Correct data: 0, Queue size: 1, Sim time: 15455
Correct data: 1, Queue size: 1, Sim time: 15565
Correct data: 0, Queue size: 1, Sim time: 15675
Correct data: 1, Queue size: 1, Sim time: 15785
Correct data: 1, Queue size: 1, Sim time: 15895
Correct data: 1, Queue size: 1, Sim time: 16005
Correct data: 1, Queue size: 1, Sim time: 16115
Correct data: 1, Queue size: 1, Sim time: 16225
Correct data: 0, Queue size: 1, Sim time: 16335
Correct data: 1, Queue size: 1, Sim time: 16445
Correct data: 1, Queue size: 1, Sim time: 16555
Correct data: 0, Queue size: 1, Sim time: 16665
Correct data: 1, Queue size: 1, Sim time: 16775
Correct data: 0, Queue size: 1, Sim time: 16885
Correct data: 1, Queue size: 1, Sim time: 16995
Correct data: 1, Queue size: 1, Sim time: 17105
Correct data: 0, Queue size: 1, Sim time: 17215
Correct data: 1, Queue size: 1, Sim time: 17325
Correct data: 1, Queue size: 1, Sim time: 17435
Correct data: 0, Queue size: 1, Sim time: 17545
Correct data: 1, Queue size: 1, Sim time: 17655
Correct data: 0, Queue size: 1, Sim time: 17765
Correct data: 0, Queue size: 1, Sim time: 17875
Correct data: 1, Queue size: 1, Sim time: 17985
Correct data: 1, Queue size: 1, Sim time: 18095
Correct data: 1, Queue size: 1, Sim time: 18205
Correct data: 1, Queue size: 1, Sim time: 18315
Correct data: 0, Queue size: 1, Sim time: 18425
Correct data: 1, Queue size: 1, Sim time: 18535
Correct data: 1, Queue size: 1, Sim time: 18645
Correct data: 1, Queue size: 1, Sim time: 18755
Correct data: 1, Queue size: 1, Sim time: 18865
Correct data: 1, Queue size: 1, Sim time: 18975
Correct data: 1, Queue size: 1, Sim time: 19085
Correct data: 1, Queue size: 1, Sim time: 19195
Correct data: 0, Queue size: 1, Sim time: 19305
Correct data: 1, Queue size: 1, Sim time: 19415
Correct data: 0, Queue size: 1, Sim time: 19525
Correct data: 0, Queue size: 1, Sim time: 19635
Correct data: 0, Queue size: 1, Sim time: 19745
Correct data: 0, Queue size: 1, Sim time: 19855
Correct data: 0, Queue size: 1, Sim time: 19965
Correct data: 1, Queue size: 1, Sim time: 20075
Correct data: 0, Queue size: 1, Sim time: 20185
Correct data: 1, Queue size: 1, Sim time: 20295
Correct data: 1, Queue size: 1, Sim time: 20405
Correct data: 0, Queue size: 1, Sim time: 20515
Correct data: 0, Queue size: 1, Sim time: 20625
Correct data: 0, Queue size: 1, Sim time: 20735
Correct data: 1, Queue size: 1, Sim time: 20845
Correct data: 1, Queue size: 1, Sim time: 20955
Correct data: 1, Queue size: 1, Sim time: 21065
Correct data: 1, Queue size: 1, Sim time: 21175
Correct data: 0, Queue size: 1, Sim time: 21285
Correct data: 1, Queue size: 1, Sim time: 21395
Correct data: 1, Queue size: 1, Sim time: 21505
Correct data: 1, Queue size: 1, Sim time: 21615
Correct data: 1, Queue size: 1, Sim time: 21725
Correct data: 1, Queue size: 1, Sim time: 21835
Correct data: 0, Queue size: 1, Sim time: 21945
Correct data: 1, Queue size: 1, Sim time: 22055
Correct data: 0, Queue size: 1, Sim time: 22165
Correct data: 1, Queue size: 1, Sim time: 22275
Correct data: 0, Queue size: 1, Sim time: 22385
Correct data: 0, Queue size: 1, Sim time: 22495
Correct data: 0, Queue size: 1, Sim time: 22605
Correct data: 1, Queue size: 1, Sim time: 22715
Correct data: 0, Queue size: 1, Sim time: 22825
Correct data: 1, Queue size: 1, Sim time: 22935
Correct data: 1, Queue size: 1, Sim time: 23045
Correct data: 1, Queue size: 1, Sim time: 23155
Correct data: 0, Queue size: 1, Sim time: 23265
Correct data: 0, Queue size: 1, Sim time: 23375
Correct data: 0, Queue size: 1, Sim time: 23485
Correct data: 0, Queue size: 1, Sim time: 23595
Correct data: 1, Queue size: 1, Sim time: 23705
Correct data: 0, Queue size: 1, Sim time: 23815
Correct data: 0, Queue size: 1, Sim time: 23925
Correct data: 0, Queue size: 1, Sim time: 24035
Correct data: 1, Queue size: 1, Sim time: 24145
Correct data: 1, Queue size: 1, Sim time: 24255
Correct data: 1, Queue size: 1, Sim time: 24365
Correct data: 1, Queue size: 1, Sim time: 24475
Correct data: 0, Queue size: 1, Sim time: 24585
Correct data: 1, Queue size: 1, Sim time: 24695
Correct data: 1, Queue size: 1, Sim time: 24805
Correct data: 1, Queue size: 1, Sim time: 24915
Correct data: 1, Queue size: 1, Sim time: 25025
Correct data: 0, Queue size: 1, Sim time: 25135
Correct data: 0, Queue size: 1, Sim time: 25245
Correct data: 1, Queue size: 1, Sim time: 25355
Correct data: 0, Queue size: 1, Sim time: 25465
Correct data: 0, Queue size: 1, Sim time: 25575
Correct data: 0, Queue size: 1, Sim time: 25685
Correct data: 1, Queue size: 1, Sim time: 25795
Correct data: 1, Queue size: 1, Sim time: 25905
Correct data: 1, Queue size: 1, Sim time: 26015
Correct data: 1, Queue size: 1, Sim time: 26125
Correct data: 1, Queue size: 1, Sim time: 26235
Correct data: 1, Queue size: 1, Sim time: 26345
Correct data: 0, Queue size: 1, Sim time: 26455
Correct data: 0, Queue size: 1, Sim time: 26565
Correct data: 1, Queue size: 1, Sim time: 26675
Correct data: 0, Queue size: 1, Sim time: 26785
Correct data: 1, Queue size: 1, Sim time: 26895
Correct data: 0, Queue size: 1, Sim time: 27005
Correct data: 1, Queue size: 1, Sim time: 27115
Correct data: 1, Queue size: 1, Sim time: 27225
Correct data: 1, Queue size: 1, Sim time: 27335
Correct data: 1, Queue size: 1, Sim time: 27445
Correct data: 0, Queue size: 1, Sim time: 27555
Correct data: 0, Queue size: 1, Sim time: 27665
Correct data: 1, Queue size: 1, Sim time: 27775
Correct data: 0, Queue size: 1, Sim time: 27885
Correct data: 0, Queue size: 1, Sim time: 27995
Correct data: 0, Queue size: 1, Sim time: 28105
Correct data: 1, Queue size: 1, Sim time: 28215
Correct data: 0, Queue size: 1, Sim time: 28325
Correct data: 1, Queue size: 1, Sim time: 28435
Correct data: 0, Queue size: 1, Sim time: 28545
Correct data: 1, Queue size: 1, Sim time: 28655
Correct data: 1, Queue size: 1, Sim time: 28765
Correct data: 0, Queue size: 1, Sim time: 28875
Correct data: 0, Queue size: 1, Sim time: 28985
Correct data: 1, Queue size: 1, Sim time: 29095
Correct data: 0, Queue size: 1, Sim time: 29205
Correct data: 0, Queue size: 1, Sim time: 29315
Correct data: 0, Queue size: 1, Sim time: 29425
Correct data: 1, Queue size: 1, Sim time: 29535
Correct data: 0, Queue size: 1, Sim time: 29645
Correct data: 0, Queue size: 1, Sim time: 29755
Correct data: 0, Queue size: 1, Sim time: 29865
Correct data: 1, Queue size: 1, Sim time: 29975
Correct data: 0, Queue size: 1, Sim time: 30085
Correct data: 0, Queue size: 1, Sim time: 30195
Correct data: 1, Queue size: 1, Sim time: 30305
Correct data: 1, Queue size: 1, Sim time: 30415
Correct data: 0, Queue size: 1, Sim time: 30525
Correct data: 0, Queue size: 1, Sim time: 30635
Correct data: 1, Queue size: 1, Sim time: 30745
Correct data: 1, Queue size: 1, Sim time: 34235
Correct data: 0, Queue size: 1, Sim time: 34345
Correct data: 0, Queue size: 1, Sim time: 34455
Correct data: 1, Queue size: 1, Sim time: 34565
Correct data: 1, Queue size: 1, Sim time: 34675
Correct data: 1, Queue size: 1, Sim time: 34785
Correct data: 0, Queue size: 1, Sim time: 34895
Correct data: 1, Queue size: 1, Sim time: 35005
Correct data: 0, Queue size: 1, Sim time: 35115
Correct data: 1, Queue size: 1, Sim time: 35225
Correct data: 0, Queue size: 1, Sim time: 35335
Correct data: 1, Queue size: 1, Sim time: 35445
Correct data: 0, Queue size: 1, Sim time: 35555
Correct data: 0, Queue size: 1, Sim time: 35665
Correct data: 1, Queue size: 1, Sim time: 35775
Correct data: 1, Queue size: 1, Sim time: 35885
Correct data: 0, Queue size: 1, Sim time: 35995
Correct data: 0, Queue size: 1, Sim time: 36105
Correct data: 1, Queue size: 1, Sim time: 36215
Correct data: 1, Queue size: 1, Sim time: 36325
Correct data: 0, Queue size: 1, Sim time: 36435
Correct data: 1, Queue size: 1, Sim time: 36545
Correct data: 1, Queue size: 1, Sim time: 36655
Correct data: 1, Queue size: 1, Sim time: 36765
Correct data: 0, Queue size: 1, Sim time: 36875
Correct data: 1, Queue size: 1, Sim time: 36985
Correct data: 1, Queue size: 1, Sim time: 37095
Correct data: 1, Queue size: 1, Sim time: 37205
Correct data: 0, Queue size: 1, Sim time: 37315
Correct data: 0, Queue size: 1, Sim time: 37425
Correct data: 1, Queue size: 1, Sim time: 37535
Correct data: 0, Queue size: 1, Sim time: 37645
Correct data: 1, Queue size: 1, Sim time: 37755
Correct data: 0, Queue size: 1, Sim time: 37865
Correct data: 1, Queue size: 1, Sim time: 37975
Correct data: 1, Queue size: 1, Sim time: 38085
Correct data: 0, Queue size: 1, Sim time: 38195
Correct data: 1, Queue size: 1, Sim time: 38305
Correct data: 0, Queue size: 1, Sim time: 38415
Correct data: 0, Queue size: 1, Sim time: 38525
Correct data: 1, Queue size: 1, Sim time: 38635
Correct data: 0, Queue size: 1, Sim time: 38745
Correct data: 0, Queue size: 1, Sim time: 38855
Correct data: 1, Queue size: 1, Sim time: 38965
Correct data: 1, Queue size: 1, Sim time: 39075
Correct data: 1, Queue size: 1, Sim time: 39185
Correct data: 1, Queue size: 1, Sim time: 39295
Correct data: 0, Queue size: 1, Sim time: 39405
Correct data: 0, Queue size: 1, Sim time: 39515
Correct data: 1, Queue size: 1, Sim time: 39625
Correct data: 1, Queue size: 1, Sim time: 39735
Correct data: 0, Queue size: 1, Sim time: 39845
Correct data: 1, Queue size: 1, Sim time: 39955
Correct data: 0, Queue size: 1, Sim time: 40065
Correct data: 1, Queue size: 1, Sim time: 40175
Correct data: 0, Queue size: 1, Sim time: 40285
Correct data: 1, Queue size: 1, Sim time: 40395
Correct data: 1, Queue size: 1, Sim time: 40505
Correct data: 1, Queue size: 1, Sim time: 40615
Correct data: 1, Queue size: 1, Sim time: 40725
Correct data: 0, Queue size: 1, Sim time: 40835
Correct data: 1, Queue size: 1, Sim time: 40945
Correct data: 0, Queue size: 1, Sim time: 41055
Correct data: 1, Queue size: 1, Sim time: 41165
Correct data: 1, Queue size: 1, Sim time: 41275
Correct data: 0, Queue size: 1, Sim time: 41385
Correct data: 1, Queue size: 1, Sim time: 41495
Correct data: 1, Queue size: 1, Sim time: 41605
Correct data: 1, Queue size: 1, Sim time: 41715
Correct data: 1, Queue size: 1, Sim time: 41825
Correct data: 0, Queue size: 1, Sim time: 41935
Correct data: 0, Queue size: 1, Sim time: 42045
Correct data: 0, Queue size: 1, Sim time: 42155
Correct data: 1, Queue size: 1, Sim time: 42265
Correct data: 0, Queue size: 1, Sim time: 42375
Correct data: 1, Queue size: 1, Sim time: 42485
Correct data: 0, Queue size: 1, Sim time: 42595
Correct data: 1, Queue size: 1, Sim time: 42705
Correct data: 1, Queue size: 1, Sim time: 42815
Correct data: 0, Queue size: 1, Sim time: 42925
Correct data: 1, Queue size: 1, Sim time: 43035
Correct data: 0, Queue size: 1, Sim time: 43145
Correct data: 1, Queue size: 1, Sim time: 43255
Correct data: 0, Queue size: 1, Sim time: 43365
Correct data: 1, Queue size: 1, Sim time: 43475
Correct data: 1, Queue size: 1, Sim time: 43585
Correct data: 1, Queue size: 1, Sim time: 43695
Correct data: 1, Queue size: 1, Sim time: 43805
Correct data: 0, Queue size: 1, Sim time: 43915
Correct data: 1, Queue size: 1, Sim time: 44025
Correct data: 1, Queue size: 1, Sim time: 44135
Correct data: 0, Queue size: 1, Sim time: 44245
Correct data: 0, Queue size: 1, Sim time: 44355
Correct data: 0, Queue size: 1, Sim time: 44465
Correct data: 1, Queue size: 1, Sim time: 44575
Correct data: 1, Queue size: 1, Sim time: 44685
Correct data: 1, Queue size: 1, Sim time: 44795
Correct data: 1, Queue size: 1, Sim time: 44905
Correct data: 0, Queue size: 1, Sim time: 45015
Correct data: 0, Queue size: 1, Sim time: 45125
Correct data: 0, Queue size: 1, Sim time: 45235
Correct data: 1, Queue size: 1, Sim time: 45345
Correct data: 1, Queue size: 1, Sim time: 45455
Correct data: 0, Queue size: 1, Sim time: 45565
Correct data: 1, Queue size: 1, Sim time: 45675
Correct data: 0, Queue size: 1, Sim time: 45785
Correct data: 0, Queue size: 1, Sim time: 45895
Correct data: 0, Queue size: 1, Sim time: 46005
Correct data: 0, Queue size: 1, Sim time: 46115
Correct data: 1, Queue size: 1, Sim time: 46225
Correct data: 0, Queue size: 1, Sim time: 46335
Correct data: 1, Queue size: 1, Sim time: 46445
Correct data: 0, Queue size: 1, Sim time: 46555
Correct data: 0, Queue size: 1, Sim time: 46665
Correct data: 1, Queue size: 1, Sim time: 46775
Correct data: 1, Queue size: 1, Sim time: 46885
Correct data: 0, Queue size: 1, Sim time: 46995
Correct data: 0, Queue size: 1, Sim time: 47105
Correct data: 0, Queue size: 1, Sim time: 47215
Correct data: 0, Queue size: 1, Sim time: 47325
Correct data: 0, Queue size: 1, Sim time: 47435
Correct data: 1, Queue size: 1, Sim time: 47545
Correct data: 0, Queue size: 1, Sim time: 47655
Correct data: 0, Queue size: 1, Sim time: 47765
Correct data: 1, Queue size: 1, Sim time: 47875
Correct data: 1, Queue size: 1, Sim time: 47985
Correct data: 1, Queue size: 1, Sim time: 48095
Correct data: 0, Queue size: 1, Sim time: 48205
Correct data: 0, Queue size: 1, Sim time: 48315
Correct data: 1, Queue size: 1, Sim time: 48425
Correct data: 0, Queue size: 1, Sim time: 48535
Correct data: 1, Queue size: 1, Sim time: 48645
Correct data: 0, Queue size: 1, Sim time: 48755
Correct data: 0, Queue size: 1, Sim time: 48865
Correct data: 1, Queue size: 1, Sim time: 48975
Correct data: 1, Queue size: 1, Sim time: 49085
Correct data: 1, Queue size: 1, Sim time: 49195
Correct data: 0, Queue size: 1, Sim time: 49305
Correct data: 0, Queue size: 1, Sim time: 49415
Correct data: 0, Queue size: 1, Sim time: 49525
Correct data: 1, Queue size: 1, Sim time: 49635
Correct data: 1, Queue size: 1, Sim time: 49745
Correct data: 0, Queue size: 1, Sim time: 49855
Correct data: 1, Queue size: 1, Sim time: 49965
Correct data: 1, Queue size: 1, Sim time: 50075
Correct data: 1, Queue size: 1, Sim time: 50185
Correct data: 0, Queue size: 1, Sim time: 50295
Correct data: 0, Queue size: 1, Sim time: 50405
Correct data: 1, Queue size: 1, Sim time: 50515
Correct data: 1, Queue size: 1, Sim time: 50625
Correct data: 0, Queue size: 1, Sim time: 50735
Correct data: 0, Queue size: 1, Sim time: 50845
Correct data: 0, Queue size: 1, Sim time: 50955
Correct data: 1, Queue size: 1, Sim time: 51065
Correct data: 0, Queue size: 1, Sim time: 51175
Correct data: 1, Queue size: 1, Sim time: 51285
Correct data: 1, Queue size: 1, Sim time: 51395
Correct data: 0, Queue size: 1, Sim time: 51505
Correct data: 0, Queue size: 1, Sim time: 51615
Correct data: 0, Queue size: 1, Sim time: 51725
Correct data: 0, Queue size: 1, Sim time: 51835
Correct data: 0, Queue size: 1, Sim time: 51945
Correct data: 0, Queue size: 1, Sim time: 52055
Correct data: 0, Queue size: 1, Sim time: 52165
Correct data: 1, Queue size: 1, Sim time: 52275
Correct data: 1, Queue size: 1, Sim time: 52385
Correct data: 0, Queue size: 1, Sim time: 52495
Correct data: 1, Queue size: 1, Sim time: 52605
Correct data: 1, Queue size: 1, Sim time: 52715
Correct data: 0, Queue size: 1, Sim time: 52825
Correct data: 0, Queue size: 1, Sim time: 52935
Correct data: 0, Queue size: 1, Sim time: 53045
Correct data: 1, Queue size: 1, Sim time: 53155
Correct data: 0, Queue size: 1, Sim time: 53265
Correct data: 1, Queue size: 1, Sim time: 53375
Correct data: 1, Queue size: 1, Sim time: 53485
Correct data: 0, Queue size: 1, Sim time: 53595
Correct data: 1, Queue size: 1, Sim time: 53705
Correct data: 0, Queue size: 1, Sim time: 53815
Correct data: 0, Queue size: 1, Sim time: 53925
Correct data: 0, Queue size: 1, Sim time: 54035
Correct data: 0, Queue size: 1, Sim time: 54145
Correct data: 1, Queue size: 1, Sim time: 54255
Correct data: 0, Queue size: 1, Sim time: 54365
Correct data: 1, Queue size: 1, Sim time: 54475
Correct data: 1, Queue size: 1, Sim time: 54585
Correct data: 1, Queue size: 1, Sim time: 54695
Correct data: 1, Queue size: 1, Sim time: 54805
Correct data: 1, Queue size: 1, Sim time: 54915
Correct data: 0, Queue size: 1, Sim time: 55025
Correct data: 0, Queue size: 1, Sim time: 55135
Correct data: 1, Queue size: 1, Sim time: 55245
Correct data: 0, Queue size: 1, Sim time: 55355
Correct data: 1, Queue size: 1, Sim time: 55465
Correct data: 0, Queue size: 1, Sim time: 55575
Correct data: 0, Queue size: 1, Sim time: 55685
Correct data: 1, Queue size: 1, Sim time: 55795
Correct data: 0, Queue size: 1, Sim time: 55905
Correct data: 1, Queue size: 1, Sim time: 56015
Correct data: 1, Queue size: 1, Sim time: 56125
Correct data: 0, Queue size: 1, Sim time: 56235
Correct data: 1, Queue size: 1, Sim time: 56345
Correct data: 1, Queue size: 1, Sim time: 56455
Correct data: 1, Queue size: 1, Sim time: 56565
Correct data: 1, Queue size: 1, Sim time: 56675
Correct data: 1, Queue size: 1, Sim time: 56785
Correct data: 0, Queue size: 1, Sim time: 56895
Correct data: 1, Queue size: 1, Sim time: 57005
Correct data: 1, Queue size: 1, Sim time: 57115
Correct data: 0, Queue size: 1, Sim time: 57225
Correct data: 0, Queue size: 1, Sim time: 57335
Correct data: 0, Queue size: 1, Sim time: 57445
Correct data: 1, Queue size: 1, Sim time: 57555
Correct data: 1, Queue size: 1, Sim time: 57665
Correct data: 0, Queue size: 1, Sim time: 57775
Correct data: 1, Queue size: 1, Sim time: 57885
Correct data: 1, Queue size: 1, Sim time: 57995
Correct data: 0, Queue size: 1, Sim time: 58105
Correct data: 0, Queue size: 1, Sim time: 58215
Correct data: 0, Queue size: 1, Sim time: 58325
Correct data: 0, Queue size: 1, Sim time: 58435
Correct data: 1, Queue size: 1, Sim time: 58545
Correct data: 0, Queue size: 1, Sim time: 58655
Correct data: 0, Queue size: 1, Sim time: 58765
Correct data: 1, Queue size: 1, Sim time: 58875
Correct data: 1, Queue size: 1, Sim time: 58985
Correct data: 1, Queue size: 1, Sim time: 59095
Correct data: 1, Queue size: 1, Sim time: 59205
Correct data: 0, Queue size: 1, Sim time: 59315
Correct data: 0, Queue size: 1, Sim time: 59425
Correct data: 0, Queue size: 1, Sim time: 59535
Correct data: 0, Queue size: 1, Sim time: 59645
Correct data: 1, Queue size: 1, Sim time: 59755
Correct data: 0, Queue size: 1, Sim time: 59865
Correct data: 0, Queue size: 1, Sim time: 59975
Correct data: 0, Queue size: 1, Sim time: 60085
Correct data: 1, Queue size: 1, Sim time: 60195
Correct data: 0, Queue size: 1, Sim time: 60305
Correct data: 0, Queue size: 1, Sim time: 60415
Correct data: 1, Queue size: 1, Sim time: 60525
Correct data: 1, Queue size: 1, Sim time: 60635
Correct data: 0, Queue size: 1, Sim time: 60745
Correct data: 1, Queue size: 1, Sim time: 60855
Correct data: 0, Queue size: 1, Sim time: 60965
Correct data: 1, Queue size: 1, Sim time: 61075
Correct data: 0, Queue size: 1, Sim time: 61185
Correct data: 0, Queue size: 1, Sim time: 61295
Correct data: 1, Queue size: 1, Sim time: 61405
Correct data: 1, Queue size: 1, Sim time: 61515
Correct data: 0, Queue size: 1, Sim time: 61625
Correct data: 0, Queue size: 1, Sim time: 61735
Correct data: 1, Queue size: 1, Sim time: 61845
Correct data: 0, Queue size: 1, Sim time: 61955
Correct data: 1, Queue size: 1, Sim time: 65445
Correct data: 0, Queue size: 1, Sim time: 65555
Correct data: 1, Queue size: 1, Sim time: 65665
Correct data: 1, Queue size: 1, Sim time: 65775
Correct data: 1, Queue size: 1, Sim time: 65885
Correct data: 1, Queue size: 1, Sim time: 65995
Correct data: 0, Queue size: 1, Sim time: 66105
Correct data: 0, Queue size: 1, Sim time: 66215
Correct data: 0, Queue size: 1, Sim time: 66325
Correct data: 0, Queue size: 1, Sim time: 66435
Correct data: 0, Queue size: 1, Sim time: 66545
Correct data: 0, Queue size: 1, Sim time: 66655
Correct data: 1, Queue size: 1, Sim time: 66765
Correct data: 0, Queue size: 1, Sim time: 66875
Correct data: 0, Queue size: 1, Sim time: 66985
Correct data: 0, Queue size: 1, Sim time: 67095
Correct data: 0, Queue size: 1, Sim time: 67205
Correct data: 0, Queue size: 1, Sim time: 67315
Correct data: 0, Queue size: 1, Sim time: 67425
Correct data: 1, Queue size: 1, Sim time: 67535
Correct data: 1, Queue size: 1, Sim time: 67645
Correct data: 0, Queue size: 1, Sim time: 67755
Correct data: 0, Queue size: 1, Sim time: 67865
Correct data: 0, Queue size: 1, Sim time: 67975
Correct data: 0, Queue size: 1, Sim time: 68085
Correct data: 1, Queue size: 1, Sim time: 68195
Correct data: 1, Queue size: 1, Sim time: 68305
Correct data: 1, Queue size: 1, Sim time: 68415
Correct data: 0, Queue size: 1, Sim time: 68525
Correct data: 1, Queue size: 1, Sim time: 68635
Correct data: 0, Queue size: 1, Sim time: 68745
Correct data: 1, Queue size: 1, Sim time: 68855
Correct data: 1, Queue size: 1, Sim time: 68965
Correct data: 0, Queue size: 1, Sim time: 69075
Correct data: 1, Queue size: 1, Sim time: 69185
Correct data: 0, Queue size: 1, Sim time: 69295
Correct data: 1, Queue size: 1, Sim time: 69405
Correct data: 0, Queue size: 1, Sim time: 69515
Correct data: 1, Queue size: 1, Sim time: 69625
Correct data: 1, Queue size: 1, Sim time: 69735
Correct data: 0, Queue size: 1, Sim time: 69845
Correct data: 1, Queue size: 1, Sim time: 69955
Correct data: 1, Queue size: 1, Sim time: 70065
Correct data: 1, Queue size: 1, Sim time: 70175
Correct data: 1, Queue size: 1, Sim time: 70285
Correct data: 0, Queue size: 1, Sim time: 70395
Correct data: 0, Queue size: 1, Sim time: 70505
Correct data: 0, Queue size: 1, Sim time: 70615
Correct data: 0, Queue size: 1, Sim time: 70725
Correct data: 0, Queue size: 1, Sim time: 70835
Correct data: 1, Queue size: 1, Sim time: 70945
Correct data: 0, Queue size: 1, Sim time: 71055
Correct data: 1, Queue size: 1, Sim time: 71165
Correct data: 0, Queue size: 1, Sim time: 71275
Correct data: 1, Queue size: 1, Sim time: 71385
Correct data: 1, Queue size: 1, Sim time: 71495
Correct data: 0, Queue size: 1, Sim time: 71605
Correct data: 1, Queue size: 1, Sim time: 71715
Correct data: 1, Queue size: 1, Sim time: 71825
Correct data: 0, Queue size: 1, Sim time: 71935
Correct data: 1, Queue size: 1, Sim time: 72045
Correct data: 0, Queue size: 1, Sim time: 72155
Correct data: 1, Queue size: 1, Sim time: 72265
Correct data: 0, Queue size: 1, Sim time: 72375
Correct data: 1, Queue size: 1, Sim time: 72485
Correct data: 0, Queue size: 1, Sim time: 72595
Correct data: 1, Queue size: 1, Sim time: 72705
Correct data: 0, Queue size: 1, Sim time: 72815
Correct data: 0, Queue size: 1, Sim time: 72925
Correct data: 0, Queue size: 1, Sim time: 73035
Correct data: 1, Queue size: 1, Sim time: 73145
Correct data: 0, Queue size: 1, Sim time: 73255
Correct data: 0, Queue size: 1, Sim time: 73365
Correct data: 0, Queue size: 1, Sim time: 73475
Correct data: 0, Queue size: 1, Sim time: 73585
Correct data: 0, Queue size: 1, Sim time: 73695
Correct data: 1, Queue size: 1, Sim time: 73805
Correct data: 0, Queue size: 1, Sim time: 73915
Correct data: 0, Queue size: 1, Sim time: 74025
Correct data: 1, Queue size: 1, Sim time: 74135
